-- Merging decision tree log ---
manifest
ADDED from /Users/connectingsoft/Desktop/FlutterProjects/swftea-flutter/android/app/src/main/AndroidManifest.xml:1:1-55:12
INJECTED from /Users/connectingsoft/Desktop/FlutterProjects/swftea-flutter/android/app/src/main/AndroidManifest.xml:1:1-55:12
INJECTED from /Users/connectingsoft/Desktop/FlutterProjects/swftea-flutter/android/app/src/main/AndroidManifest.xml:1:1-55:12
INJECTED from /Users/connectingsoft/Desktop/FlutterProjects/swftea-flutter/android/app/src/main/AndroidManifest.xml:1:1-55:12
MERGED from [:wakelock] /Users/connectingsoft/Desktop/FlutterProjects/swftea-flutter/build/wakelock/intermediates/library_manifest/release/AndroidManifest.xml:2:1-7:12
MERGED from [:image_downloader] /Users/connectingsoft/Desktop/FlutterProjects/swftea-flutter/build/image_downloader/intermediates/library_manifest/release/AndroidManifest.xml:2:1-7:12
MERGED from [:fluttertoast] /Users/connectingsoft/Desktop/FlutterProjects/swftea-flutter/build/fluttertoast/intermediates/library_manifest/release/AndroidManifest.xml:2:1-7:12
MERGED from [:hexcolor] /Users/connectingsoft/Desktop/FlutterProjects/swftea-flutter/build/hexcolor/intermediates/library_manifest/release/AndroidManifest.xml:2:1-7:12
MERGED from [:photo_manager] /Users/connectingsoft/Desktop/FlutterProjects/swftea-flutter/build/photo_manager/intermediates/library_manifest/release/AndroidManifest.xml:2:1-11:12
MERGED from [:firebase_admob] /Users/connectingsoft/Desktop/FlutterProjects/swftea-flutter/build/firebase_admob/intermediates/library_manifest/release/AndroidManifest.xml:2:1-9:12
MERGED from [com.google.firebase:firebase-ads:18.1.1] /Users/connectingsoft/.gradle/caches/transforms-2/files-2.1/967b9b94c42c9687a292c969f1ea2e3e/firebase-ads-18.1.1/AndroidManifest.xml:2:1-9:12
MERGED from [com.google.firebase:firebase-analytics:17.5.0] /Users/connectingsoft/.gradle/caches/transforms-2/files-2.1/735f964501c664d0b5d9c0716b905a35/firebase-analytics-17.5.0/AndroidManifest.xml:2:1-9:12
MERGED from [androidx.multidex:multidex:2.0.0] /Users/connectingsoft/.gradle/caches/transforms-2/files-2.1/1e43ec82407637f465c620e746b223b7/multidex-2.0.0/AndroidManifest.xml:17:1-22:12
MERGED from [:image_picker] /Users/connectingsoft/Desktop/FlutterProjects/swftea-flutter/build/image_picker/intermediates/library_manifest/release/AndroidManifest.xml:2:1-22:12
MERGED from [:flutter_plugin_android_lifecycle] /Users/connectingsoft/Desktop/FlutterProjects/swftea-flutter/build/flutter_plugin_android_lifecycle/intermediates/library_manifest/release/AndroidManifest.xml:2:1-7:12
MERGED from [:screen] /Users/connectingsoft/Desktop/FlutterProjects/swftea-flutter/build/screen/intermediates/library_manifest/release/AndroidManifest.xml:2:1-11:12
MERGED from [:firebase_core] /Users/connectingsoft/Desktop/FlutterProjects/swftea-flutter/build/firebase_core/intermediates/library_manifest/release/AndroidManifest.xml:2:1-15:12
MERGED from [:firebase_core_web] /Users/connectingsoft/Desktop/FlutterProjects/swftea-flutter/build/firebase_core_web/intermediates/library_manifest/release/AndroidManifest.xml:2:1-7:12
MERGED from [:package_info] /Users/connectingsoft/Desktop/FlutterProjects/swftea-flutter/build/package_info/intermediates/library_manifest/release/AndroidManifest.xml:2:1-7:12
MERGED from [:flutter_pusher] /Users/connectingsoft/Desktop/FlutterProjects/swftea-flutter/build/flutter_pusher/intermediates/library_manifest/release/AndroidManifest.xml:2:1-7:12
MERGED from [:audioplayers] /Users/connectingsoft/Desktop/FlutterProjects/swftea-flutter/build/audioplayers/intermediates/library_manifest/release/AndroidManifest.xml:2:1-9:12
MERGED from [:flutter_audio_recorder] /Users/connectingsoft/Desktop/FlutterProjects/swftea-flutter/build/flutter_audio_recorder/intermediates/library_manifest/release/AndroidManifest.xml:2:1-9:12
MERGED from [:shared_preferences] /Users/connectingsoft/Desktop/FlutterProjects/swftea-flutter/build/shared_preferences/intermediates/library_manifest/release/AndroidManifest.xml:2:1-7:12
MERGED from [:webview_flutter] /Users/connectingsoft/Desktop/FlutterProjects/swftea-flutter/build/webview_flutter/intermediates/library_manifest/release/AndroidManifest.xml:2:1-7:12
MERGED from [:sqflite] /Users/connectingsoft/Desktop/FlutterProjects/swftea-flutter/build/sqflite/intermediates/library_manifest/release/AndroidManifest.xml:2:1-7:12
MERGED from [:url_launcher] /Users/connectingsoft/Desktop/FlutterProjects/swftea-flutter/build/url_launcher/intermediates/library_manifest/release/AndroidManifest.xml:2:1-14:12
MERGED from [:path_provider] /Users/connectingsoft/Desktop/FlutterProjects/swftea-flutter/build/path_provider/intermediates/library_manifest/release/AndroidManifest.xml:2:1-7:12
MERGED from [:video_player] /Users/connectingsoft/Desktop/FlutterProjects/swftea-flutter/build/video_player/intermediates/library_manifest/release/AndroidManifest.xml:2:1-7:12
MERGED from [androidx.core:core-ktx:1.2.0] /Users/connectingsoft/.gradle/caches/transforms-2/files-2.1/1212928d5b7483b96e9ac67e7e679d2d/core-ktx-1.2.0/AndroidManifest.xml:2:1-9:12
MERGED from [com.google.android.gms:play-services-ads:18.1.1] /Users/connectingsoft/.gradle/caches/transforms-2/files-2.1/871e82e51a29368ab6bdcebbeef22097/jetified-play-services-ads-18.1.1/AndroidManifest.xml:17:1-25:12
MERGED from [com.google.android.gms:play-services-ads-lite:18.1.1] /Users/connectingsoft/.gradle/caches/transforms-2/files-2.1/7c3787d3ff10d1637991d3ea32ec217c/play-services-ads-lite-18.1.1/AndroidManifest.xml:17:1-42:12
MERGED from [com.google.android.gms:play-services-measurement:17.5.0] /Users/connectingsoft/.gradle/caches/transforms-2/files-2.1/e9973ab53e0e0ab3a5a85762e8cae3ab/play-services-measurement-17.5.0/AndroidManifest.xml:17:1-46:12
MERGED from [com.google.android.gms:play-services-measurement-api:17.5.0] /Users/connectingsoft/.gradle/caches/transforms-2/files-2.1/d751e1e5368e6ac07484e7b258ca1942/play-services-measurement-api-17.5.0/AndroidManifest.xml:17:1-36:12
MERGED from [com.google.android.gms:play-services-measurement-sdk:17.5.0] /Users/connectingsoft/.gradle/caches/transforms-2/files-2.1/3ff9635ecb03dbc28cb1f83fd4a79033/play-services-measurement-sdk-17.5.0/AndroidManifest.xml:17:1-25:12
MERGED from [androidx.appcompat:appcompat:1.1.0] /Users/connectingsoft/.gradle/caches/transforms-2/files-2.1/701c33591765b03ec8ed51d702bd262d/appcompat-1.1.0/AndroidManifest.xml:17:1-24:12
MERGED from [com.github.bumptech.glide:glide:4.11.0] /Users/connectingsoft/.gradle/caches/transforms-2/files-2.1/4eeb8b38a9e7dbd0adc74613eaf1eb5b/glide-4.11.0/AndroidManifest.xml:2:1-12:12
MERGED from [androidx.exifinterface:exifinterface:1.2.0] /Users/connectingsoft/.gradle/caches/transforms-2/files-2.1/913abb0a75a2be5ad5b15d6124cdcde5/exifinterface-1.2.0/AndroidManifest.xml:17:1-24:12
MERGED from [androidx.webkit:webkit:1.0.0] /Users/connectingsoft/.gradle/caches/transforms-2/files-2.1/3af8640ce562b4b4e0a6111579ef27f6/webkit-1.0.0/AndroidManifest.xml:17:1-22:12
MERGED from [com.google.android.exoplayer:exoplayer-hls:2.9.6] /Users/connectingsoft/.gradle/caches/transforms-2/files-2.1/01f6df6d144d9b7fbabddf0ebb1713ff/jetified-exoplayer-hls-2.9.6/AndroidManifest.xml:17:1-24:12
MERGED from [com.google.android.exoplayer:exoplayer-dash:2.9.6] /Users/connectingsoft/.gradle/caches/transforms-2/files-2.1/01eef7a9aa88e3fe45145cd3e12a9688/jetified-exoplayer-dash-2.9.6/AndroidManifest.xml:17:1-24:12
MERGED from [com.google.android.exoplayer:exoplayer-smoothstreaming:2.9.6] /Users/connectingsoft/.gradle/caches/transforms-2/files-2.1/197ebcd64bda2822e36fb8ad1cf2c3df/jetified-exoplayer-smoothstreaming-2.9.6/AndroidManifest.xml:17:1-24:12
MERGED from [com.google.android.exoplayer:exoplayer-core:2.9.6] /Users/connectingsoft/.gradle/caches/transforms-2/files-2.1/a180a139ad0492cc012b9844c27d5650/jetified-exoplayer-core-2.9.6/AndroidManifest.xml:17:1-26:12
MERGED from [com.google.android.gms:play-services-measurement-impl:17.5.0] /Users/connectingsoft/.gradle/caches/transforms-2/files-2.1/7d1c3ef02e96dfb3982cb45a906654ba/play-services-measurement-impl-17.5.0/AndroidManifest.xml:17:1-31:12
MERGED from [com.google.android.gms:play-services-ads-identifier:17.0.0] /Users/connectingsoft/.gradle/caches/transforms-2/files-2.1/bf32d33463f95f7bff9ab9ece9656a67/play-services-ads-identifier-17.0.0/AndroidManifest.xml:17:1-24:12
MERGED from [com.google.android.gms:play-services-measurement-sdk-api:17.5.0] /Users/connectingsoft/.gradle/caches/transforms-2/files-2.1/5f2682a3b0bc0bcbaeae6897b083d2cb/play-services-measurement-sdk-api-17.5.0/AndroidManifest.xml:17:1-27:12
MERGED from [com.google.android.gms:play-services-measurement-base:17.5.0] /Users/connectingsoft/.gradle/caches/transforms-2/files-2.1/77bb8c5dc66f5d23d5181402d1918c2e/play-services-measurement-base-17.5.0/AndroidManifest.xml:2:1-9:12
MERGED from [com.google.android.gms:play-services-stats:17.0.0] /Users/connectingsoft/.gradle/caches/transforms-2/files-2.1/646fcaf19234d7b37b884114aa567eb2/play-services-stats-17.0.0/AndroidManifest.xml:2:1-9:12
MERGED from [com.google.firebase:firebase-installations:16.3.2] /Users/connectingsoft/.gradle/caches/transforms-2/files-2.1/a6beb7a08bb153d99f4a6b1869466e43/firebase-installations-16.3.2/AndroidManifest.xml:2:1-23:12
MERGED from [com.google.firebase:firebase-common:19.3.0] /Users/connectingsoft/.gradle/caches/transforms-2/files-2.1/b4d70312b78f53c88af6af54a360b32c/jetified-firebase-common-19.3.0/AndroidManifest.xml:15:1-39:12
MERGED from [com.google.firebase:firebase-installations-interop:16.0.0] /Users/connectingsoft/.gradle/caches/transforms-2/files-2.1/be92c5c51e7e0033fb4b175f26388755/firebase-installations-interop-16.0.0/AndroidManifest.xml:15:1-23:12
MERGED from [com.google.android.gms:play-services-tasks:17.0.0] /Users/connectingsoft/.gradle/caches/transforms-2/files-2.1/187fb4c1c365ae32171bd8312a35992f/play-services-tasks-17.0.0/AndroidManifest.xml:2:1-9:12
MERGED from [com.google.firebase:firebase-measurement-connector:18.0.0] /Users/connectingsoft/.gradle/caches/transforms-2/files-2.1/31a3395230a9bd928e78ed2dc5338b8e/firebase-measurement-connector-18.0.0/AndroidManifest.xml:17:1-25:12
MERGED from [com.google.android.gms:play-services-gass:18.1.1] /Users/connectingsoft/.gradle/caches/transforms-2/files-2.1/08116a99daa688a4ccbee288c02c56d2/play-services-gass-18.1.1/AndroidManifest.xml:2:1-9:12
MERGED from [com.google.android.gms:play-services-basement:17.0.0] /Users/connectingsoft/.gradle/caches/transforms-2/files-2.1/0c8ad2a00ddfc6ae591800ac4e022858/jetified-play-services-basement-17.0.0/AndroidManifest.xml:17:1-28:12
MERGED from [androidx.fragment:fragment:1.1.0] /Users/connectingsoft/.gradle/caches/transforms-2/files-2.1/0d479d426be2ba1f4bdfee2f9a7aa519/fragment-1.1.0/AndroidManifest.xml:17:1-24:12
MERGED from [androidx.browser:browser:1.0.0] /Users/connectingsoft/.gradle/caches/transforms-2/files-2.1/33e5ae0b4711709cb339233c513b94a7/browser-1.0.0/AndroidManifest.xml:17:1-22:12
MERGED from [androidx.legacy:legacy-support-core-ui:1.0.0] /Users/connectingsoft/.gradle/caches/transforms-2/files-2.1/536c4d230adcf87aec8f00c8955f8127/legacy-support-core-ui-1.0.0/AndroidManifest.xml:17:1-22:12
MERGED from [androidx.legacy:legacy-support-core-utils:1.0.0] /Users/connectingsoft/.gradle/caches/transforms-2/files-2.1/d10fe1176fa5480b064486ece15f99c1/legacy-support-core-utils-1.0.0/AndroidManifest.xml:17:1-22:12
MERGED from [androidx.appcompat:appcompat-resources:1.1.0] /Users/connectingsoft/.gradle/caches/transforms-2/files-2.1/f266002780b6f62ae73a8842bc10a810/appcompat-resources-1.1.0/AndroidManifest.xml:17:1-24:12
MERGED from [androidx.drawerlayout:drawerlayout:1.0.0] /Users/connectingsoft/.gradle/caches/transforms-2/files-2.1/6af37b0dc18acadfaf8b0344ec157d66/drawerlayout-1.0.0/AndroidManifest.xml:17:1-22:12
MERGED from [androidx.viewpager:viewpager:1.0.0] /Users/connectingsoft/.gradle/caches/transforms-2/files-2.1/4881302d1430cfdcaa10344523e2ce7f/viewpager-1.0.0/AndroidManifest.xml:17:1-22:12
MERGED from [androidx.loader:loader:1.0.0] /Users/connectingsoft/.gradle/caches/transforms-2/files-2.1/28c8df72e3e98cf2af337943db219b6d/loader-1.0.0/AndroidManifest.xml:17:1-22:12
MERGED from [androidx.activity:activity:1.0.0] /Users/connectingsoft/.gradle/caches/transforms-2/files-2.1/5a1de8d3594afca67ad230d5d25a73b9/activity-1.0.0/AndroidManifest.xml:17:1-24:12
MERGED from [androidx.vectordrawable:vectordrawable-animated:1.1.0] /Users/connectingsoft/.gradle/caches/transforms-2/files-2.1/a5b8095803802f17607f1ac359c588fa/vectordrawable-animated-1.1.0/AndroidManifest.xml:17:1-24:12
MERGED from [androidx.vectordrawable:vectordrawable:1.1.0] /Users/connectingsoft/.gradle/caches/transforms-2/files-2.1/06d80eb16b557b026bc1ef456724990c/vectordrawable-1.1.0/AndroidManifest.xml:17:1-24:12
MERGED from [androidx.coordinatorlayout:coordinatorlayout:1.0.0] /Users/connectingsoft/.gradle/caches/transforms-2/files-2.1/d255798b3263f4a3c8e304b7de4de531/coordinatorlayout-1.0.0/AndroidManifest.xml:17:1-22:12
MERGED from [androidx.slidingpanelayout:slidingpanelayout:1.0.0] /Users/connectingsoft/.gradle/caches/transforms-2/files-2.1/3008a15222323dd0393f3314747b2d3a/slidingpanelayout-1.0.0/AndroidManifest.xml:17:1-22:12
MERGED from [androidx.customview:customview:1.0.0] /Users/connectingsoft/.gradle/caches/transforms-2/files-2.1/31cd047ed3ec37dce69ba9f16e10a05d/customview-1.0.0/AndroidManifest.xml:17:1-22:12
MERGED from [androidx.swiperefreshlayout:swiperefreshlayout:1.0.0] /Users/connectingsoft/.gradle/caches/transforms-2/files-2.1/5a5d53679d914b768463e606a8e8f920/swiperefreshlayout-1.0.0/AndroidManifest.xml:17:1-22:12
MERGED from [androidx.asynclayoutinflater:asynclayoutinflater:1.0.0] /Users/connectingsoft/.gradle/caches/transforms-2/files-2.1/2ecca17b0eb70fcbc1e9d8148641257d/asynclayoutinflater-1.0.0/AndroidManifest.xml:17:1-22:12
MERGED from [androidx.core:core:1.2.0] /Users/connectingsoft/.gradle/caches/transforms-2/files-2.1/35f29bb1a578f0319e9c3e21730b6b49/core-1.2.0/AndroidManifest.xml:17:1-26:12
MERGED from [androidx.lifecycle:lifecycle-runtime:2.2.0] /Users/connectingsoft/.gradle/caches/transforms-2/files-2.1/00db72760b3662c4528b816b17c43995/lifecycle-runtime-2.2.0/AndroidManifest.xml:17:1-24:12
MERGED from [androidx.savedstate:savedstate:1.0.0] /Users/connectingsoft/.gradle/caches/transforms-2/files-2.1/13eb812daeca5edd5883d98298d1a9d8/savedstate-1.0.0/AndroidManifest.xml:17:1-24:12
MERGED from [androidx.lifecycle:lifecycle-livedata:2.0.0] /Users/connectingsoft/.gradle/caches/transforms-2/files-2.1/82b463c8584fb88ea5a1f562d740c4b7/lifecycle-livedata-2.0.0/AndroidManifest.xml:17:1-22:12
MERGED from [androidx.lifecycle:lifecycle-livedata-core:2.0.0] /Users/connectingsoft/.gradle/caches/transforms-2/files-2.1/a78ce9b49fd39a3eac90624d04d1ee8a/lifecycle-livedata-core-2.0.0/AndroidManifest.xml:17:1-22:12
MERGED from [com.google.firebase:firebase-components:16.0.0] /Users/connectingsoft/.gradle/caches/transforms-2/files-2.1/1f9ad27fb80a3ad71997bcb058f5c855/jetified-firebase-components-16.0.0/AndroidManifest.xml:15:1-23:12
MERGED from [androidx.cursoradapter:cursoradapter:1.0.0] /Users/connectingsoft/.gradle/caches/transforms-2/files-2.1/07713a4b02ecb1ede5529340586b2906/cursoradapter-1.0.0/AndroidManifest.xml:17:1-22:12
MERGED from [com.github.bumptech.glide:gifdecoder:4.11.0] /Users/connectingsoft/.gradle/caches/transforms-2/files-2.1/65a5a8e8db79d7e1680f7d5a4cad2d28/gifdecoder-4.11.0/AndroidManifest.xml:2:1-11:12
MERGED from [androidx.arch.core:core-runtime:2.0.0] /Users/connectingsoft/.gradle/caches/transforms-2/files-2.1/3bf5fc05ca184d01c3bed36c84f7c6c7/core-runtime-2.0.0/AndroidManifest.xml:17:1-22:12
MERGED from [androidx.versionedparcelable:versionedparcelable:1.1.0] /Users/connectingsoft/.gradle/caches/transforms-2/files-2.1/4227c25f5adddf6ac1aa1a65c6b6f6a4/versionedparcelable-1.1.0/AndroidManifest.xml:17:1-27:12
MERGED from [androidx.documentfile:documentfile:1.0.0] /Users/connectingsoft/.gradle/caches/transforms-2/files-2.1/ec735b528ee8f52f56a38a2f27a69a4b/documentfile-1.0.0/AndroidManifest.xml:17:1-22:12
MERGED from [androidx.localbroadcastmanager:localbroadcastmanager:1.0.0] /Users/connectingsoft/.gradle/caches/transforms-2/files-2.1/c8f4c2580dddd9ecf64fc10bf9fbc418/localbroadcastmanager-1.0.0/AndroidManifest.xml:17:1-22:12
MERGED from [androidx.print:print:1.0.0] /Users/connectingsoft/.gradle/caches/transforms-2/files-2.1/dff04f4f27a157ea6f57a15b661fd9d7/print-1.0.0/AndroidManifest.xml:17:1-22:12
MERGED from [androidx.lifecycle:lifecycle-viewmodel:2.1.0] /Users/connectingsoft/.gradle/caches/transforms-2/files-2.1/d51e0220d8e43d4bfbf3a1c4895b8a97/lifecycle-viewmodel-2.1.0/AndroidManifest.xml:17:1-22:12
MERGED from [androidx.interpolator:interpolator:1.0.0] /Users/connectingsoft/.gradle/caches/transforms-2/files-2.1/b59192acc39c8e1083525bb1a0764fd3/interpolator-1.0.0/AndroidManifest.xml:17:1-22:12
MERGED from [com.google.android.gms:play-services-ads-base:18.1.1] /Users/connectingsoft/.gradle/caches/transforms-2/files-2.1/fd2966a5ffabf0512fb016d54587372f/play-services-ads-base-18.1.1/AndroidManifest.xml:2:1-9:12
INJECTED from /Users/connectingsoft/Desktop/FlutterProjects/swftea-flutter/android/app/src/main/AndroidManifest.xml:1:1-55:12
INJECTED from /Users/connectingsoft/Desktop/FlutterProjects/swftea-flutter/android/app/src/main/AndroidManifest.xml:1:1-55:12
INJECTED from /Users/connectingsoft/Desktop/FlutterProjects/swftea-flutter/android/app/src/main/AndroidManifest.xml:1:1-55:12
	package
		ADDED from /Users/connectingsoft/Desktop/FlutterProjects/swftea-flutter/android/app/src/main/AndroidManifest.xml:2:5-40
		INJECTED from /Users/connectingsoft/Desktop/FlutterProjects/swftea-flutter/android/app/src/main/AndroidManifest.xml
		INJECTED from /Users/connectingsoft/Desktop/FlutterProjects/swftea-flutter/android/app/src/main/AndroidManifest.xml
	android:versionName
		INJECTED from /Users/connectingsoft/Desktop/FlutterProjects/swftea-flutter/android/app/src/main/AndroidManifest.xml
		ADDED from /Users/connectingsoft/Desktop/FlutterProjects/swftea-flutter/android/app/src/main/AndroidManifest.xml:1:1-55:12
		INJECTED from /Users/connectingsoft/Desktop/FlutterProjects/swftea-flutter/android/app/src/main/AndroidManifest.xml
	android:versionCode
		INJECTED from /Users/connectingsoft/Desktop/FlutterProjects/swftea-flutter/android/app/src/main/AndroidManifest.xml
		ADDED from /Users/connectingsoft/Desktop/FlutterProjects/swftea-flutter/android/app/src/main/AndroidManifest.xml:1:1-55:12
		INJECTED from /Users/connectingsoft/Desktop/FlutterProjects/swftea-flutter/android/app/src/main/AndroidManifest.xml
	xmlns:android
		ADDED from /Users/connectingsoft/Desktop/FlutterProjects/swftea-flutter/android/app/src/main/AndroidManifest.xml:1:11-69
uses-permission#android.permission.INTERNET
ADDED from /Users/connectingsoft/Desktop/FlutterProjects/swftea-flutter/android/app/src/main/AndroidManifest.xml:8:5-66
MERGED from [:firebase_admob] /Users/connectingsoft/Desktop/FlutterProjects/swftea-flutter/build/firebase_admob/intermediates/library_manifest/release/AndroidManifest.xml:7:5-67
MERGED from [:firebase_admob] /Users/connectingsoft/Desktop/FlutterProjects/swftea-flutter/build/firebase_admob/intermediates/library_manifest/release/AndroidManifest.xml:7:5-67
MERGED from [com.google.android.gms:play-services-ads-lite:18.1.1] /Users/connectingsoft/.gradle/caches/transforms-2/files-2.1/7c3787d3ff10d1637991d3ea32ec217c/play-services-ads-lite-18.1.1/AndroidManifest.xml:23:5-67
MERGED from [com.google.android.gms:play-services-ads-lite:18.1.1] /Users/connectingsoft/.gradle/caches/transforms-2/files-2.1/7c3787d3ff10d1637991d3ea32ec217c/play-services-ads-lite-18.1.1/AndroidManifest.xml:23:5-67
MERGED from [com.google.android.gms:play-services-measurement:17.5.0] /Users/connectingsoft/.gradle/caches/transforms-2/files-2.1/e9973ab53e0e0ab3a5a85762e8cae3ab/play-services-measurement-17.5.0/AndroidManifest.xml:23:5-67
MERGED from [com.google.android.gms:play-services-measurement:17.5.0] /Users/connectingsoft/.gradle/caches/transforms-2/files-2.1/e9973ab53e0e0ab3a5a85762e8cae3ab/play-services-measurement-17.5.0/AndroidManifest.xml:23:5-67
MERGED from [com.google.android.gms:play-services-measurement-api:17.5.0] /Users/connectingsoft/.gradle/caches/transforms-2/files-2.1/d751e1e5368e6ac07484e7b258ca1942/play-services-measurement-api-17.5.0/AndroidManifest.xml:22:5-67
MERGED from [com.google.android.gms:play-services-measurement-api:17.5.0] /Users/connectingsoft/.gradle/caches/transforms-2/files-2.1/d751e1e5368e6ac07484e7b258ca1942/play-services-measurement-api-17.5.0/AndroidManifest.xml:22:5-67
MERGED from [com.google.android.gms:play-services-measurement-impl:17.5.0] /Users/connectingsoft/.gradle/caches/transforms-2/files-2.1/7d1c3ef02e96dfb3982cb45a906654ba/play-services-measurement-impl-17.5.0/AndroidManifest.xml:23:5-67
MERGED from [com.google.android.gms:play-services-measurement-impl:17.5.0] /Users/connectingsoft/.gradle/caches/transforms-2/files-2.1/7d1c3ef02e96dfb3982cb45a906654ba/play-services-measurement-impl-17.5.0/AndroidManifest.xml:23:5-67
MERGED from [com.google.android.gms:play-services-measurement-sdk-api:17.5.0] /Users/connectingsoft/.gradle/caches/transforms-2/files-2.1/5f2682a3b0bc0bcbaeae6897b083d2cb/play-services-measurement-sdk-api-17.5.0/AndroidManifest.xml:23:5-67
MERGED from [com.google.android.gms:play-services-measurement-sdk-api:17.5.0] /Users/connectingsoft/.gradle/caches/transforms-2/files-2.1/5f2682a3b0bc0bcbaeae6897b083d2cb/play-services-measurement-sdk-api-17.5.0/AndroidManifest.xml:23:5-67
MERGED from [com.google.firebase:firebase-installations:16.3.2] /Users/connectingsoft/.gradle/caches/transforms-2/files-2.1/a6beb7a08bb153d99f4a6b1869466e43/firebase-installations-16.3.2/AndroidManifest.xml:11:5-67
MERGED from [com.google.firebase:firebase-installations:16.3.2] /Users/connectingsoft/.gradle/caches/transforms-2/files-2.1/a6beb7a08bb153d99f4a6b1869466e43/firebase-installations-16.3.2/AndroidManifest.xml:11:5-67
	android:name
		ADDED from /Users/connectingsoft/Desktop/FlutterProjects/swftea-flutter/android/app/src/main/AndroidManifest.xml:8:22-64
uses-permission#android.permission.RECORD_AUDIO
ADDED from /Users/connectingsoft/Desktop/FlutterProjects/swftea-flutter/android/app/src/main/AndroidManifest.xml:9:5-70
	android:name
		ADDED from /Users/connectingsoft/Desktop/FlutterProjects/swftea-flutter/android/app/src/main/AndroidManifest.xml:9:22-68
uses-permission#android.permission.WRITE_EXTERNAL_STORAGE
ADDED from /Users/connectingsoft/Desktop/FlutterProjects/swftea-flutter/android/app/src/main/AndroidManifest.xml:10:5-80
MERGED from [:photo_manager] /Users/connectingsoft/Desktop/FlutterProjects/swftea-flutter/build/photo_manager/intermediates/library_manifest/release/AndroidManifest.xml:7:5-81
MERGED from [:photo_manager] /Users/connectingsoft/Desktop/FlutterProjects/swftea-flutter/build/photo_manager/intermediates/library_manifest/release/AndroidManifest.xml:7:5-81
MERGED from [:image_picker] /Users/connectingsoft/Desktop/FlutterProjects/swftea-flutter/build/image_picker/intermediates/library_manifest/release/AndroidManifest.xml:8:5-81
MERGED from [:image_picker] /Users/connectingsoft/Desktop/FlutterProjects/swftea-flutter/build/image_picker/intermediates/library_manifest/release/AndroidManifest.xml:8:5-81
	android:name
		ADDED from /Users/connectingsoft/Desktop/FlutterProjects/swftea-flutter/android/app/src/main/AndroidManifest.xml:10:22-78
application
ADDED from /Users/connectingsoft/Desktop/FlutterProjects/swftea-flutter/android/app/src/main/AndroidManifest.xml:11:5-54:19
MERGED from [com.google.firebase:firebase-ads:18.1.1] /Users/connectingsoft/.gradle/caches/transforms-2/files-2.1/967b9b94c42c9687a292c969f1ea2e3e/firebase-ads-18.1.1/AndroidManifest.xml:7:5-20
MERGED from [com.google.firebase:firebase-ads:18.1.1] /Users/connectingsoft/.gradle/caches/transforms-2/files-2.1/967b9b94c42c9687a292c969f1ea2e3e/firebase-ads-18.1.1/AndroidManifest.xml:7:5-20
MERGED from [com.google.firebase:firebase-analytics:17.5.0] /Users/connectingsoft/.gradle/caches/transforms-2/files-2.1/735f964501c664d0b5d9c0716b905a35/firebase-analytics-17.5.0/AndroidManifest.xml:7:5-20
MERGED from [com.google.firebase:firebase-analytics:17.5.0] /Users/connectingsoft/.gradle/caches/transforms-2/files-2.1/735f964501c664d0b5d9c0716b905a35/firebase-analytics-17.5.0/AndroidManifest.xml:7:5-20
MERGED from [:image_picker] /Users/connectingsoft/Desktop/FlutterProjects/swftea-flutter/build/image_picker/intermediates/library_manifest/release/AndroidManifest.xml:10:5-20:19
MERGED from [:image_picker] /Users/connectingsoft/Desktop/FlutterProjects/swftea-flutter/build/image_picker/intermediates/library_manifest/release/AndroidManifest.xml:10:5-20:19
MERGED from [:firebase_core] /Users/connectingsoft/Desktop/FlutterProjects/swftea-flutter/build/firebase_core/intermediates/library_manifest/release/AndroidManifest.xml:7:5-13:19
MERGED from [:firebase_core] /Users/connectingsoft/Desktop/FlutterProjects/swftea-flutter/build/firebase_core/intermediates/library_manifest/release/AndroidManifest.xml:7:5-13:19
MERGED from [:url_launcher] /Users/connectingsoft/Desktop/FlutterProjects/swftea-flutter/build/url_launcher/intermediates/library_manifest/release/AndroidManifest.xml:7:5-12:19
MERGED from [:url_launcher] /Users/connectingsoft/Desktop/FlutterProjects/swftea-flutter/build/url_launcher/intermediates/library_manifest/release/AndroidManifest.xml:7:5-12:19
MERGED from [com.google.android.gms:play-services-ads-lite:18.1.1] /Users/connectingsoft/.gradle/caches/transforms-2/files-2.1/7c3787d3ff10d1637991d3ea32ec217c/play-services-ads-lite-18.1.1/AndroidManifest.xml:26:5-40:19
MERGED from [com.google.android.gms:play-services-ads-lite:18.1.1] /Users/connectingsoft/.gradle/caches/transforms-2/files-2.1/7c3787d3ff10d1637991d3ea32ec217c/play-services-ads-lite-18.1.1/AndroidManifest.xml:26:5-40:19
MERGED from [com.google.android.gms:play-services-measurement:17.5.0] /Users/connectingsoft/.gradle/caches/transforms-2/files-2.1/e9973ab53e0e0ab3a5a85762e8cae3ab/play-services-measurement-17.5.0/AndroidManifest.xml:28:5-44:19
MERGED from [com.google.android.gms:play-services-measurement:17.5.0] /Users/connectingsoft/.gradle/caches/transforms-2/files-2.1/e9973ab53e0e0ab3a5a85762e8cae3ab/play-services-measurement-17.5.0/AndroidManifest.xml:28:5-44:19
MERGED from [com.google.android.gms:play-services-measurement-api:17.5.0] /Users/connectingsoft/.gradle/caches/transforms-2/files-2.1/d751e1e5368e6ac07484e7b258ca1942/play-services-measurement-api-17.5.0/AndroidManifest.xml:26:5-34:19
MERGED from [com.google.android.gms:play-services-measurement-api:17.5.0] /Users/connectingsoft/.gradle/caches/transforms-2/files-2.1/d751e1e5368e6ac07484e7b258ca1942/play-services-measurement-api-17.5.0/AndroidManifest.xml:26:5-34:19
MERGED from [com.google.android.gms:play-services-measurement-sdk:17.5.0] /Users/connectingsoft/.gradle/caches/transforms-2/files-2.1/3ff9635ecb03dbc28cb1f83fd4a79033/play-services-measurement-sdk-17.5.0/AndroidManifest.xml:22:5-23:19
MERGED from [com.google.android.gms:play-services-measurement-sdk:17.5.0] /Users/connectingsoft/.gradle/caches/transforms-2/files-2.1/3ff9635ecb03dbc28cb1f83fd4a79033/play-services-measurement-sdk-17.5.0/AndroidManifest.xml:22:5-23:19
MERGED from [com.github.bumptech.glide:glide:4.11.0] /Users/connectingsoft/.gradle/caches/transforms-2/files-2.1/4eeb8b38a9e7dbd0adc74613eaf1eb5b/glide-4.11.0/AndroidManifest.xml:10:5-20
MERGED from [com.github.bumptech.glide:glide:4.11.0] /Users/connectingsoft/.gradle/caches/transforms-2/files-2.1/4eeb8b38a9e7dbd0adc74613eaf1eb5b/glide-4.11.0/AndroidManifest.xml:10:5-20
MERGED from [com.google.android.gms:play-services-measurement-impl:17.5.0] /Users/connectingsoft/.gradle/caches/transforms-2/files-2.1/7d1c3ef02e96dfb3982cb45a906654ba/play-services-measurement-impl-17.5.0/AndroidManifest.xml:28:5-29:19
MERGED from [com.google.android.gms:play-services-measurement-impl:17.5.0] /Users/connectingsoft/.gradle/caches/transforms-2/files-2.1/7d1c3ef02e96dfb3982cb45a906654ba/play-services-measurement-impl-17.5.0/AndroidManifest.xml:28:5-29:19
MERGED from [com.google.android.gms:play-services-ads-identifier:17.0.0] /Users/connectingsoft/.gradle/caches/transforms-2/files-2.1/bf32d33463f95f7bff9ab9ece9656a67/play-services-ads-identifier-17.0.0/AndroidManifest.xml:22:5-20
MERGED from [com.google.android.gms:play-services-ads-identifier:17.0.0] /Users/connectingsoft/.gradle/caches/transforms-2/files-2.1/bf32d33463f95f7bff9ab9ece9656a67/play-services-ads-identifier-17.0.0/AndroidManifest.xml:22:5-20
MERGED from [com.google.android.gms:play-services-measurement-base:17.5.0] /Users/connectingsoft/.gradle/caches/transforms-2/files-2.1/77bb8c5dc66f5d23d5181402d1918c2e/play-services-measurement-base-17.5.0/AndroidManifest.xml:7:5-20
MERGED from [com.google.android.gms:play-services-measurement-base:17.5.0] /Users/connectingsoft/.gradle/caches/transforms-2/files-2.1/77bb8c5dc66f5d23d5181402d1918c2e/play-services-measurement-base-17.5.0/AndroidManifest.xml:7:5-20
MERGED from [com.google.android.gms:play-services-stats:17.0.0] /Users/connectingsoft/.gradle/caches/transforms-2/files-2.1/646fcaf19234d7b37b884114aa567eb2/play-services-stats-17.0.0/AndroidManifest.xml:7:5-20
MERGED from [com.google.android.gms:play-services-stats:17.0.0] /Users/connectingsoft/.gradle/caches/transforms-2/files-2.1/646fcaf19234d7b37b884114aa567eb2/play-services-stats-17.0.0/AndroidManifest.xml:7:5-20
MERGED from [com.google.firebase:firebase-installations:16.3.2] /Users/connectingsoft/.gradle/caches/transforms-2/files-2.1/a6beb7a08bb153d99f4a6b1869466e43/firebase-installations-16.3.2/AndroidManifest.xml:13:5-21:19
MERGED from [com.google.firebase:firebase-installations:16.3.2] /Users/connectingsoft/.gradle/caches/transforms-2/files-2.1/a6beb7a08bb153d99f4a6b1869466e43/firebase-installations-16.3.2/AndroidManifest.xml:13:5-21:19
MERGED from [com.google.firebase:firebase-common:19.3.0] /Users/connectingsoft/.gradle/caches/transforms-2/files-2.1/b4d70312b78f53c88af6af54a360b32c/jetified-firebase-common-19.3.0/AndroidManifest.xml:25:5-37:19
MERGED from [com.google.firebase:firebase-common:19.3.0] /Users/connectingsoft/.gradle/caches/transforms-2/files-2.1/b4d70312b78f53c88af6af54a360b32c/jetified-firebase-common-19.3.0/AndroidManifest.xml:25:5-37:19
MERGED from [com.google.android.gms:play-services-tasks:17.0.0] /Users/connectingsoft/.gradle/caches/transforms-2/files-2.1/187fb4c1c365ae32171bd8312a35992f/play-services-tasks-17.0.0/AndroidManifest.xml:7:5-20
MERGED from [com.google.android.gms:play-services-tasks:17.0.0] /Users/connectingsoft/.gradle/caches/transforms-2/files-2.1/187fb4c1c365ae32171bd8312a35992f/play-services-tasks-17.0.0/AndroidManifest.xml:7:5-20
MERGED from [com.google.firebase:firebase-measurement-connector:18.0.0] /Users/connectingsoft/.gradle/caches/transforms-2/files-2.1/31a3395230a9bd928e78ed2dc5338b8e/firebase-measurement-connector-18.0.0/AndroidManifest.xml:22:5-23:19
MERGED from [com.google.firebase:firebase-measurement-connector:18.0.0] /Users/connectingsoft/.gradle/caches/transforms-2/files-2.1/31a3395230a9bd928e78ed2dc5338b8e/firebase-measurement-connector-18.0.0/AndroidManifest.xml:22:5-23:19
MERGED from [com.google.android.gms:play-services-gass:18.1.1] /Users/connectingsoft/.gradle/caches/transforms-2/files-2.1/08116a99daa688a4ccbee288c02c56d2/play-services-gass-18.1.1/AndroidManifest.xml:7:5-20
MERGED from [com.google.android.gms:play-services-gass:18.1.1] /Users/connectingsoft/.gradle/caches/transforms-2/files-2.1/08116a99daa688a4ccbee288c02c56d2/play-services-gass-18.1.1/AndroidManifest.xml:7:5-20
MERGED from [com.google.android.gms:play-services-basement:17.0.0] /Users/connectingsoft/.gradle/caches/transforms-2/files-2.1/0c8ad2a00ddfc6ae591800ac4e022858/jetified-play-services-basement-17.0.0/AndroidManifest.xml:22:5-26:19
MERGED from [com.google.android.gms:play-services-basement:17.0.0] /Users/connectingsoft/.gradle/caches/transforms-2/files-2.1/0c8ad2a00ddfc6ae591800ac4e022858/jetified-play-services-basement-17.0.0/AndroidManifest.xml:22:5-26:19
MERGED from [androidx.core:core:1.2.0] /Users/connectingsoft/.gradle/caches/transforms-2/files-2.1/35f29bb1a578f0319e9c3e21730b6b49/core-1.2.0/AndroidManifest.xml:24:5-89
MERGED from [androidx.core:core:1.2.0] /Users/connectingsoft/.gradle/caches/transforms-2/files-2.1/35f29bb1a578f0319e9c3e21730b6b49/core-1.2.0/AndroidManifest.xml:24:5-89
MERGED from [com.github.bumptech.glide:gifdecoder:4.11.0] /Users/connectingsoft/.gradle/caches/transforms-2/files-2.1/65a5a8e8db79d7e1680f7d5a4cad2d28/gifdecoder-4.11.0/AndroidManifest.xml:9:5-20
MERGED from [com.github.bumptech.glide:gifdecoder:4.11.0] /Users/connectingsoft/.gradle/caches/transforms-2/files-2.1/65a5a8e8db79d7e1680f7d5a4cad2d28/gifdecoder-4.11.0/AndroidManifest.xml:9:5-20
MERGED from [androidx.versionedparcelable:versionedparcelable:1.1.0] /Users/connectingsoft/.gradle/caches/transforms-2/files-2.1/4227c25f5adddf6ac1aa1a65c6b6f6a4/versionedparcelable-1.1.0/AndroidManifest.xml:24:5-25:19
MERGED from [androidx.versionedparcelable:versionedparcelable:1.1.0] /Users/connectingsoft/.gradle/caches/transforms-2/files-2.1/4227c25f5adddf6ac1aa1a65c6b6f6a4/versionedparcelable-1.1.0/AndroidManifest.xml:24:5-25:19
MERGED from [com.google.android.gms:play-services-ads-base:18.1.1] /Users/connectingsoft/.gradle/caches/transforms-2/files-2.1/fd2966a5ffabf0512fb016d54587372f/play-services-ads-base-18.1.1/AndroidManifest.xml:7:5-20
MERGED from [com.google.android.gms:play-services-ads-base:18.1.1] /Users/connectingsoft/.gradle/caches/transforms-2/files-2.1/fd2966a5ffabf0512fb016d54587372f/play-services-ads-base-18.1.1/AndroidManifest.xml:7:5-20
	android:appComponentFactory
		ADDED from [androidx.core:core:1.2.0] /Users/connectingsoft/.gradle/caches/transforms-2/files-2.1/35f29bb1a578f0319e9c3e21730b6b49/core-1.2.0/AndroidManifest.xml:24:18-86
	android:label
		ADDED from /Users/connectingsoft/Desktop/FlutterProjects/swftea-flutter/android/app/src/main/AndroidManifest.xml:13:9-31
	android:icon
		ADDED from /Users/connectingsoft/Desktop/FlutterProjects/swftea-flutter/android/app/src/main/AndroidManifest.xml:15:9-45
	android:usesCleartextTraffic
		ADDED from /Users/connectingsoft/Desktop/FlutterProjects/swftea-flutter/android/app/src/main/AndroidManifest.xml:14:9-44
	android:name
		ADDED from /Users/connectingsoft/Desktop/FlutterProjects/swftea-flutter/android/app/src/main/AndroidManifest.xml:12:9-57
meta-data#com.google.android.gms.ads.APPLICATION_ID
ADDED from /Users/connectingsoft/Desktop/FlutterProjects/swftea-flutter/android/app/src/main/AndroidManifest.xml:16:9-19:11
	android:value
		ADDED from /Users/connectingsoft/Desktop/FlutterProjects/swftea-flutter/android/app/src/main/AndroidManifest.xml:18:11-65
	android:name
		ADDED from /Users/connectingsoft/Desktop/FlutterProjects/swftea-flutter/android/app/src/main/AndroidManifest.xml:17:11-67
activity#com.example.swfteaproject.MainActivity
ADDED from /Users/connectingsoft/Desktop/FlutterProjects/swftea-flutter/android/app/src/main/AndroidManifest.xml:20:9-48:20
	android:launchMode
		ADDED from /Users/connectingsoft/Desktop/FlutterProjects/swftea-flutter/android/app/src/main/AndroidManifest.xml:22:13-43
	android:hardwareAccelerated
		ADDED from /Users/connectingsoft/Desktop/FlutterProjects/swftea-flutter/android/app/src/main/AndroidManifest.xml:25:13-47
	android:windowSoftInputMode
		ADDED from /Users/connectingsoft/Desktop/FlutterProjects/swftea-flutter/android/app/src/main/AndroidManifest.xml:26:13-55
	android:configChanges
		ADDED from /Users/connectingsoft/Desktop/FlutterProjects/swftea-flutter/android/app/src/main/AndroidManifest.xml:24:13-163
	android:theme
		ADDED from /Users/connectingsoft/Desktop/FlutterProjects/swftea-flutter/android/app/src/main/AndroidManifest.xml:23:13-47
	android:name
		ADDED from /Users/connectingsoft/Desktop/FlutterProjects/swftea-flutter/android/app/src/main/AndroidManifest.xml:21:13-41
meta-data#io.flutter.embedding.android.NormalTheme
ADDED from /Users/connectingsoft/Desktop/FlutterProjects/swftea-flutter/android/app/src/main/AndroidManifest.xml:31:13-34:17
	android:resource
		ADDED from /Users/connectingsoft/Desktop/FlutterProjects/swftea-flutter/android/app/src/main/AndroidManifest.xml:33:15-52
	android:name
		ADDED from /Users/connectingsoft/Desktop/FlutterProjects/swftea-flutter/android/app/src/main/AndroidManifest.xml:32:15-70
meta-data#io.flutter.embedding.android.SplashScreenDrawable
ADDED from /Users/connectingsoft/Desktop/FlutterProjects/swftea-flutter/android/app/src/main/AndroidManifest.xml:40:13-43:17
	android:resource
		ADDED from /Users/connectingsoft/Desktop/FlutterProjects/swftea-flutter/android/app/src/main/AndroidManifest.xml:42:15-61
	android:name
		ADDED from /Users/connectingsoft/Desktop/FlutterProjects/swftea-flutter/android/app/src/main/AndroidManifest.xml:41:15-79
intent-filter#action:name:android.intent.action.MAIN+category:name:android.intent.category.LAUNCHER
ADDED from /Users/connectingsoft/Desktop/FlutterProjects/swftea-flutter/android/app/src/main/AndroidManifest.xml:44:13-47:29
action#android.intent.action.MAIN
ADDED from /Users/connectingsoft/Desktop/FlutterProjects/swftea-flutter/android/app/src/main/AndroidManifest.xml:45:17-68
	android:name
		ADDED from /Users/connectingsoft/Desktop/FlutterProjects/swftea-flutter/android/app/src/main/AndroidManifest.xml:45:25-66
category#android.intent.category.LAUNCHER
ADDED from /Users/connectingsoft/Desktop/FlutterProjects/swftea-flutter/android/app/src/main/AndroidManifest.xml:46:17-76
	android:name
		ADDED from /Users/connectingsoft/Desktop/FlutterProjects/swftea-flutter/android/app/src/main/AndroidManifest.xml:46:27-74
meta-data#flutterEmbedding
ADDED from /Users/connectingsoft/Desktop/FlutterProjects/swftea-flutter/android/app/src/main/AndroidManifest.xml:51:9-53:33
	android:value
		ADDED from /Users/connectingsoft/Desktop/FlutterProjects/swftea-flutter/android/app/src/main/AndroidManifest.xml:53:13-30
	android:name
		ADDED from /Users/connectingsoft/Desktop/FlutterProjects/swftea-flutter/android/app/src/main/AndroidManifest.xml:52:13-44
uses-sdk
INJECTED from /Users/connectingsoft/Desktop/FlutterProjects/swftea-flutter/android/app/src/main/AndroidManifest.xml reason: use-sdk injection requested
INJECTED from /Users/connectingsoft/Desktop/FlutterProjects/swftea-flutter/android/app/src/main/AndroidManifest.xml
INJECTED from /Users/connectingsoft/Desktop/FlutterProjects/swftea-flutter/android/app/src/main/AndroidManifest.xml
MERGED from [:wakelock] /Users/connectingsoft/Desktop/FlutterProjects/swftea-flutter/build/wakelock/intermediates/library_manifest/release/AndroidManifest.xml:5:5-44
MERGED from [:wakelock] /Users/connectingsoft/Desktop/FlutterProjects/swftea-flutter/build/wakelock/intermediates/library_manifest/release/AndroidManifest.xml:5:5-44
MERGED from [:image_downloader] /Users/connectingsoft/Desktop/FlutterProjects/swftea-flutter/build/image_downloader/intermediates/library_manifest/release/AndroidManifest.xml:5:5-44
MERGED from [:image_downloader] /Users/connectingsoft/Desktop/FlutterProjects/swftea-flutter/build/image_downloader/intermediates/library_manifest/release/AndroidManifest.xml:5:5-44
MERGED from [:fluttertoast] /Users/connectingsoft/Desktop/FlutterProjects/swftea-flutter/build/fluttertoast/intermediates/library_manifest/release/AndroidManifest.xml:5:5-44
MERGED from [:fluttertoast] /Users/connectingsoft/Desktop/FlutterProjects/swftea-flutter/build/fluttertoast/intermediates/library_manifest/release/AndroidManifest.xml:5:5-44
MERGED from [:hexcolor] /Users/connectingsoft/Desktop/FlutterProjects/swftea-flutter/build/hexcolor/intermediates/library_manifest/release/AndroidManifest.xml:5:5-44
MERGED from [:hexcolor] /Users/connectingsoft/Desktop/FlutterProjects/swftea-flutter/build/hexcolor/intermediates/library_manifest/release/AndroidManifest.xml:5:5-44
MERGED from [:photo_manager] /Users/connectingsoft/Desktop/FlutterProjects/swftea-flutter/build/photo_manager/intermediates/library_manifest/release/AndroidManifest.xml:5:5-44
MERGED from [:photo_manager] /Users/connectingsoft/Desktop/FlutterProjects/swftea-flutter/build/photo_manager/intermediates/library_manifest/release/AndroidManifest.xml:5:5-44
MERGED from [:firebase_admob] /Users/connectingsoft/Desktop/FlutterProjects/swftea-flutter/build/firebase_admob/intermediates/library_manifest/release/AndroidManifest.xml:5:5-44
MERGED from [:firebase_admob] /Users/connectingsoft/Desktop/FlutterProjects/swftea-flutter/build/firebase_admob/intermediates/library_manifest/release/AndroidManifest.xml:5:5-44
MERGED from [com.google.firebase:firebase-ads:18.1.1] /Users/connectingsoft/.gradle/caches/transforms-2/files-2.1/967b9b94c42c9687a292c969f1ea2e3e/firebase-ads-18.1.1/AndroidManifest.xml:5:5-44
MERGED from [com.google.firebase:firebase-ads:18.1.1] /Users/connectingsoft/.gradle/caches/transforms-2/files-2.1/967b9b94c42c9687a292c969f1ea2e3e/firebase-ads-18.1.1/AndroidManifest.xml:5:5-44
MERGED from [com.google.firebase:firebase-analytics:17.5.0] /Users/connectingsoft/.gradle/caches/transforms-2/files-2.1/735f964501c664d0b5d9c0716b905a35/firebase-analytics-17.5.0/AndroidManifest.xml:5:5-44
MERGED from [com.google.firebase:firebase-analytics:17.5.0] /Users/connectingsoft/.gradle/caches/transforms-2/files-2.1/735f964501c664d0b5d9c0716b905a35/firebase-analytics-17.5.0/AndroidManifest.xml:5:5-44
MERGED from [androidx.multidex:multidex:2.0.0] /Users/connectingsoft/.gradle/caches/transforms-2/files-2.1/1e43ec82407637f465c620e746b223b7/multidex-2.0.0/AndroidManifest.xml:20:5-43
MERGED from [androidx.multidex:multidex:2.0.0] /Users/connectingsoft/.gradle/caches/transforms-2/files-2.1/1e43ec82407637f465c620e746b223b7/multidex-2.0.0/AndroidManifest.xml:20:5-43
MERGED from [:image_picker] /Users/connectingsoft/Desktop/FlutterProjects/swftea-flutter/build/image_picker/intermediates/library_manifest/release/AndroidManifest.xml:5:5-44
MERGED from [:image_picker] /Users/connectingsoft/Desktop/FlutterProjects/swftea-flutter/build/image_picker/intermediates/library_manifest/release/AndroidManifest.xml:5:5-44
MERGED from [:flutter_plugin_android_lifecycle] /Users/connectingsoft/Desktop/FlutterProjects/swftea-flutter/build/flutter_plugin_android_lifecycle/intermediates/library_manifest/release/AndroidManifest.xml:5:5-44
MERGED from [:flutter_plugin_android_lifecycle] /Users/connectingsoft/Desktop/FlutterProjects/swftea-flutter/build/flutter_plugin_android_lifecycle/intermediates/library_manifest/release/AndroidManifest.xml:5:5-44
MERGED from [:screen] /Users/connectingsoft/Desktop/FlutterProjects/swftea-flutter/build/screen/intermediates/library_manifest/release/AndroidManifest.xml:7:5-9:41
MERGED from [:screen] /Users/connectingsoft/Desktop/FlutterProjects/swftea-flutter/build/screen/intermediates/library_manifest/release/AndroidManifest.xml:7:5-9:41
MERGED from [:firebase_core] /Users/connectingsoft/Desktop/FlutterProjects/swftea-flutter/build/firebase_core/intermediates/library_manifest/release/AndroidManifest.xml:5:5-44
MERGED from [:firebase_core] /Users/connectingsoft/Desktop/FlutterProjects/swftea-flutter/build/firebase_core/intermediates/library_manifest/release/AndroidManifest.xml:5:5-44
MERGED from [:firebase_core_web] /Users/connectingsoft/Desktop/FlutterProjects/swftea-flutter/build/firebase_core_web/intermediates/library_manifest/release/AndroidManifest.xml:5:5-44
MERGED from [:firebase_core_web] /Users/connectingsoft/Desktop/FlutterProjects/swftea-flutter/build/firebase_core_web/intermediates/library_manifest/release/AndroidManifest.xml:5:5-44
MERGED from [:package_info] /Users/connectingsoft/Desktop/FlutterProjects/swftea-flutter/build/package_info/intermediates/library_manifest/release/AndroidManifest.xml:5:5-44
MERGED from [:package_info] /Users/connectingsoft/Desktop/FlutterProjects/swftea-flutter/build/package_info/intermediates/library_manifest/release/AndroidManifest.xml:5:5-44
MERGED from [:flutter_pusher] /Users/connectingsoft/Desktop/FlutterProjects/swftea-flutter/build/flutter_pusher/intermediates/library_manifest/release/AndroidManifest.xml:5:5-44
MERGED from [:flutter_pusher] /Users/connectingsoft/Desktop/FlutterProjects/swftea-flutter/build/flutter_pusher/intermediates/library_manifest/release/AndroidManifest.xml:5:5-44
MERGED from [:audioplayers] /Users/connectingsoft/Desktop/FlutterProjects/swftea-flutter/build/audioplayers/intermediates/library_manifest/release/AndroidManifest.xml:7:5-44
MERGED from [:audioplayers] /Users/connectingsoft/Desktop/FlutterProjects/swftea-flutter/build/audioplayers/intermediates/library_manifest/release/AndroidManifest.xml:7:5-44
MERGED from [:flutter_audio_recorder] /Users/connectingsoft/Desktop/FlutterProjects/swftea-flutter/build/flutter_audio_recorder/intermediates/library_manifest/release/AndroidManifest.xml:5:5-7:41
MERGED from [:flutter_audio_recorder] /Users/connectingsoft/Desktop/FlutterProjects/swftea-flutter/build/flutter_audio_recorder/intermediates/library_manifest/release/AndroidManifest.xml:5:5-7:41
MERGED from [:shared_preferences] /Users/connectingsoft/Desktop/FlutterProjects/swftea-flutter/build/shared_preferences/intermediates/library_manifest/release/AndroidManifest.xml:5:5-44
MERGED from [:shared_preferences] /Users/connectingsoft/Desktop/FlutterProjects/swftea-flutter/build/shared_preferences/intermediates/library_manifest/release/AndroidManifest.xml:5:5-44
MERGED from [:webview_flutter] /Users/connectingsoft/Desktop/FlutterProjects/swftea-flutter/build/webview_flutter/intermediates/library_manifest/release/AndroidManifest.xml:5:5-44
MERGED from [:webview_flutter] /Users/connectingsoft/Desktop/FlutterProjects/swftea-flutter/build/webview_flutter/intermediates/library_manifest/release/AndroidManifest.xml:5:5-44
MERGED from [:sqflite] /Users/connectingsoft/Desktop/FlutterProjects/swftea-flutter/build/sqflite/intermediates/library_manifest/release/AndroidManifest.xml:5:5-44
MERGED from [:sqflite] /Users/connectingsoft/Desktop/FlutterProjects/swftea-flutter/build/sqflite/intermediates/library_manifest/release/AndroidManifest.xml:5:5-44
MERGED from [:url_launcher] /Users/connectingsoft/Desktop/FlutterProjects/swftea-flutter/build/url_launcher/intermediates/library_manifest/release/AndroidManifest.xml:5:5-44
MERGED from [:url_launcher] /Users/connectingsoft/Desktop/FlutterProjects/swftea-flutter/build/url_launcher/intermediates/library_manifest/release/AndroidManifest.xml:5:5-44
MERGED from [:path_provider] /Users/connectingsoft/Desktop/FlutterProjects/swftea-flutter/build/path_provider/intermediates/library_manifest/release/AndroidManifest.xml:5:5-44
MERGED from [:path_provider] /Users/connectingsoft/Desktop/FlutterProjects/swftea-flutter/build/path_provider/intermediates/library_manifest/release/AndroidManifest.xml:5:5-44
MERGED from [:video_player] /Users/connectingsoft/Desktop/FlutterProjects/swftea-flutter/build/video_player/intermediates/library_manifest/release/AndroidManifest.xml:5:5-44
MERGED from [:video_player] /Users/connectingsoft/Desktop/FlutterProjects/swftea-flutter/build/video_player/intermediates/library_manifest/release/AndroidManifest.xml:5:5-44
MERGED from [androidx.core:core-ktx:1.2.0] /Users/connectingsoft/.gradle/caches/transforms-2/files-2.1/1212928d5b7483b96e9ac67e7e679d2d/core-ktx-1.2.0/AndroidManifest.xml:5:5-7:41
MERGED from [androidx.core:core-ktx:1.2.0] /Users/connectingsoft/.gradle/caches/transforms-2/files-2.1/1212928d5b7483b96e9ac67e7e679d2d/core-ktx-1.2.0/AndroidManifest.xml:5:5-7:41
MERGED from [com.google.android.gms:play-services-ads:18.1.1] /Users/connectingsoft/.gradle/caches/transforms-2/files-2.1/871e82e51a29368ab6bdcebbeef22097/jetified-play-services-ads-18.1.1/AndroidManifest.xml:21:5-23:52
MERGED from [com.google.android.gms:play-services-ads:18.1.1] /Users/connectingsoft/.gradle/caches/transforms-2/files-2.1/871e82e51a29368ab6bdcebbeef22097/jetified-play-services-ads-18.1.1/AndroidManifest.xml:21:5-23:52
MERGED from [com.google.android.gms:play-services-ads-lite:18.1.1] /Users/connectingsoft/.gradle/caches/transforms-2/files-2.1/7c3787d3ff10d1637991d3ea32ec217c/play-services-ads-lite-18.1.1/AndroidManifest.xml:20:5-44
MERGED from [com.google.android.gms:play-services-ads-lite:18.1.1] /Users/connectingsoft/.gradle/caches/transforms-2/files-2.1/7c3787d3ff10d1637991d3ea32ec217c/play-services-ads-lite-18.1.1/AndroidManifest.xml:20:5-44
MERGED from [com.google.android.gms:play-services-measurement:17.5.0] /Users/connectingsoft/.gradle/caches/transforms-2/files-2.1/e9973ab53e0e0ab3a5a85762e8cae3ab/play-services-measurement-17.5.0/AndroidManifest.xml:20:5-44
MERGED from [com.google.android.gms:play-services-measurement:17.5.0] /Users/connectingsoft/.gradle/caches/transforms-2/files-2.1/e9973ab53e0e0ab3a5a85762e8cae3ab/play-services-measurement-17.5.0/AndroidManifest.xml:20:5-44
MERGED from [com.google.android.gms:play-services-measurement-api:17.5.0] /Users/connectingsoft/.gradle/caches/transforms-2/files-2.1/d751e1e5368e6ac07484e7b258ca1942/play-services-measurement-api-17.5.0/AndroidManifest.xml:20:5-44
MERGED from [com.google.android.gms:play-services-measurement-api:17.5.0] /Users/connectingsoft/.gradle/caches/transforms-2/files-2.1/d751e1e5368e6ac07484e7b258ca1942/play-services-measurement-api-17.5.0/AndroidManifest.xml:20:5-44
MERGED from [com.google.android.gms:play-services-measurement-sdk:17.5.0] /Users/connectingsoft/.gradle/caches/transforms-2/files-2.1/3ff9635ecb03dbc28cb1f83fd4a79033/play-services-measurement-sdk-17.5.0/AndroidManifest.xml:20:5-44
MERGED from [com.google.android.gms:play-services-measurement-sdk:17.5.0] /Users/connectingsoft/.gradle/caches/transforms-2/files-2.1/3ff9635ecb03dbc28cb1f83fd4a79033/play-services-measurement-sdk-17.5.0/AndroidManifest.xml:20:5-44
MERGED from [androidx.appcompat:appcompat:1.1.0] /Users/connectingsoft/.gradle/caches/transforms-2/files-2.1/701c33591765b03ec8ed51d702bd262d/appcompat-1.1.0/AndroidManifest.xml:20:5-22:41
MERGED from [androidx.appcompat:appcompat:1.1.0] /Users/connectingsoft/.gradle/caches/transforms-2/files-2.1/701c33591765b03ec8ed51d702bd262d/appcompat-1.1.0/AndroidManifest.xml:20:5-22:41
MERGED from [com.github.bumptech.glide:glide:4.11.0] /Users/connectingsoft/.gradle/caches/transforms-2/files-2.1/4eeb8b38a9e7dbd0adc74613eaf1eb5b/glide-4.11.0/AndroidManifest.xml:6:5-8:41
MERGED from [com.github.bumptech.glide:glide:4.11.0] /Users/connectingsoft/.gradle/caches/transforms-2/files-2.1/4eeb8b38a9e7dbd0adc74613eaf1eb5b/glide-4.11.0/AndroidManifest.xml:6:5-8:41
MERGED from [androidx.exifinterface:exifinterface:1.2.0] /Users/connectingsoft/.gradle/caches/transforms-2/files-2.1/913abb0a75a2be5ad5b15d6124cdcde5/exifinterface-1.2.0/AndroidManifest.xml:20:5-22:41
MERGED from [androidx.exifinterface:exifinterface:1.2.0] /Users/connectingsoft/.gradle/caches/transforms-2/files-2.1/913abb0a75a2be5ad5b15d6124cdcde5/exifinterface-1.2.0/AndroidManifest.xml:20:5-22:41
MERGED from [androidx.webkit:webkit:1.0.0] /Users/connectingsoft/.gradle/caches/transforms-2/files-2.1/3af8640ce562b4b4e0a6111579ef27f6/webkit-1.0.0/AndroidManifest.xml:20:5-44
MERGED from [androidx.webkit:webkit:1.0.0] /Users/connectingsoft/.gradle/caches/transforms-2/files-2.1/3af8640ce562b4b4e0a6111579ef27f6/webkit-1.0.0/AndroidManifest.xml:20:5-44
MERGED from [com.google.android.exoplayer:exoplayer-hls:2.9.6] /Users/connectingsoft/.gradle/caches/transforms-2/files-2.1/01f6df6d144d9b7fbabddf0ebb1713ff/jetified-exoplayer-hls-2.9.6/AndroidManifest.xml:20:5-22:41
MERGED from [com.google.android.exoplayer:exoplayer-hls:2.9.6] /Users/connectingsoft/.gradle/caches/transforms-2/files-2.1/01f6df6d144d9b7fbabddf0ebb1713ff/jetified-exoplayer-hls-2.9.6/AndroidManifest.xml:20:5-22:41
MERGED from [com.google.android.exoplayer:exoplayer-dash:2.9.6] /Users/connectingsoft/.gradle/caches/transforms-2/files-2.1/01eef7a9aa88e3fe45145cd3e12a9688/jetified-exoplayer-dash-2.9.6/AndroidManifest.xml:20:5-22:41
MERGED from [com.google.android.exoplayer:exoplayer-dash:2.9.6] /Users/connectingsoft/.gradle/caches/transforms-2/files-2.1/01eef7a9aa88e3fe45145cd3e12a9688/jetified-exoplayer-dash-2.9.6/AndroidManifest.xml:20:5-22:41
MERGED from [com.google.android.exoplayer:exoplayer-smoothstreaming:2.9.6] /Users/connectingsoft/.gradle/caches/transforms-2/files-2.1/197ebcd64bda2822e36fb8ad1cf2c3df/jetified-exoplayer-smoothstreaming-2.9.6/AndroidManifest.xml:20:5-22:41
MERGED from [com.google.android.exoplayer:exoplayer-smoothstreaming:2.9.6] /Users/connectingsoft/.gradle/caches/transforms-2/files-2.1/197ebcd64bda2822e36fb8ad1cf2c3df/jetified-exoplayer-smoothstreaming-2.9.6/AndroidManifest.xml:20:5-22:41
MERGED from [com.google.android.exoplayer:exoplayer-core:2.9.6] /Users/connectingsoft/.gradle/caches/transforms-2/files-2.1/a180a139ad0492cc012b9844c27d5650/jetified-exoplayer-core-2.9.6/AndroidManifest.xml:20:5-22:41
MERGED from [com.google.android.exoplayer:exoplayer-core:2.9.6] /Users/connectingsoft/.gradle/caches/transforms-2/files-2.1/a180a139ad0492cc012b9844c27d5650/jetified-exoplayer-core-2.9.6/AndroidManifest.xml:20:5-22:41
MERGED from [com.google.android.gms:play-services-measurement-impl:17.5.0] /Users/connectingsoft/.gradle/caches/transforms-2/files-2.1/7d1c3ef02e96dfb3982cb45a906654ba/play-services-measurement-impl-17.5.0/AndroidManifest.xml:20:5-44
MERGED from [com.google.android.gms:play-services-measurement-impl:17.5.0] /Users/connectingsoft/.gradle/caches/transforms-2/files-2.1/7d1c3ef02e96dfb3982cb45a906654ba/play-services-measurement-impl-17.5.0/AndroidManifest.xml:20:5-44
MERGED from [com.google.android.gms:play-services-ads-identifier:17.0.0] /Users/connectingsoft/.gradle/caches/transforms-2/files-2.1/bf32d33463f95f7bff9ab9ece9656a67/play-services-ads-identifier-17.0.0/AndroidManifest.xml:20:5-44
MERGED from [com.google.android.gms:play-services-ads-identifier:17.0.0] /Users/connectingsoft/.gradle/caches/transforms-2/files-2.1/bf32d33463f95f7bff9ab9ece9656a67/play-services-ads-identifier-17.0.0/AndroidManifest.xml:20:5-44
MERGED from [com.google.android.gms:play-services-measurement-sdk-api:17.5.0] /Users/connectingsoft/.gradle/caches/transforms-2/files-2.1/5f2682a3b0bc0bcbaeae6897b083d2cb/play-services-measurement-sdk-api-17.5.0/AndroidManifest.xml:20:5-44
MERGED from [com.google.android.gms:play-services-measurement-sdk-api:17.5.0] /Users/connectingsoft/.gradle/caches/transforms-2/files-2.1/5f2682a3b0bc0bcbaeae6897b083d2cb/play-services-measurement-sdk-api-17.5.0/AndroidManifest.xml:20:5-44
MERGED from [com.google.android.gms:play-services-measurement-base:17.5.0] /Users/connectingsoft/.gradle/caches/transforms-2/files-2.1/77bb8c5dc66f5d23d5181402d1918c2e/play-services-measurement-base-17.5.0/AndroidManifest.xml:5:5-44
MERGED from [com.google.android.gms:play-services-measurement-base:17.5.0] /Users/connectingsoft/.gradle/caches/transforms-2/files-2.1/77bb8c5dc66f5d23d5181402d1918c2e/play-services-measurement-base-17.5.0/AndroidManifest.xml:5:5-44
MERGED from [com.google.android.gms:play-services-stats:17.0.0] /Users/connectingsoft/.gradle/caches/transforms-2/files-2.1/646fcaf19234d7b37b884114aa567eb2/play-services-stats-17.0.0/AndroidManifest.xml:5:5-44
MERGED from [com.google.android.gms:play-services-stats:17.0.0] /Users/connectingsoft/.gradle/caches/transforms-2/files-2.1/646fcaf19234d7b37b884114aa567eb2/play-services-stats-17.0.0/AndroidManifest.xml:5:5-44
MERGED from [com.google.firebase:firebase-installations:16.3.2] /Users/connectingsoft/.gradle/caches/transforms-2/files-2.1/a6beb7a08bb153d99f4a6b1869466e43/firebase-installations-16.3.2/AndroidManifest.xml:6:5-8:41
MERGED from [com.google.firebase:firebase-installations:16.3.2] /Users/connectingsoft/.gradle/caches/transforms-2/files-2.1/a6beb7a08bb153d99f4a6b1869466e43/firebase-installations-16.3.2/AndroidManifest.xml:6:5-8:41
MERGED from [com.google.firebase:firebase-common:19.3.0] /Users/connectingsoft/.gradle/caches/transforms-2/files-2.1/b4d70312b78f53c88af6af54a360b32c/jetified-firebase-common-19.3.0/AndroidManifest.xml:20:5-22:41
MERGED from [com.google.firebase:firebase-common:19.3.0] /Users/connectingsoft/.gradle/caches/transforms-2/files-2.1/b4d70312b78f53c88af6af54a360b32c/jetified-firebase-common-19.3.0/AndroidManifest.xml:20:5-22:41
MERGED from [com.google.firebase:firebase-installations-interop:16.0.0] /Users/connectingsoft/.gradle/caches/transforms-2/files-2.1/be92c5c51e7e0033fb4b175f26388755/firebase-installations-interop-16.0.0/AndroidManifest.xml:19:5-21:41
MERGED from [com.google.firebase:firebase-installations-interop:16.0.0] /Users/connectingsoft/.gradle/caches/transforms-2/files-2.1/be92c5c51e7e0033fb4b175f26388755/firebase-installations-interop-16.0.0/AndroidManifest.xml:19:5-21:41
MERGED from [com.google.android.gms:play-services-tasks:17.0.0] /Users/connectingsoft/.gradle/caches/transforms-2/files-2.1/187fb4c1c365ae32171bd8312a35992f/play-services-tasks-17.0.0/AndroidManifest.xml:5:5-44
MERGED from [com.google.android.gms:play-services-tasks:17.0.0] /Users/connectingsoft/.gradle/caches/transforms-2/files-2.1/187fb4c1c365ae32171bd8312a35992f/play-services-tasks-17.0.0/AndroidManifest.xml:5:5-44
MERGED from [com.google.firebase:firebase-measurement-connector:18.0.0] /Users/connectingsoft/.gradle/caches/transforms-2/files-2.1/31a3395230a9bd928e78ed2dc5338b8e/firebase-measurement-connector-18.0.0/AndroidManifest.xml:20:5-44
MERGED from [com.google.firebase:firebase-measurement-connector:18.0.0] /Users/connectingsoft/.gradle/caches/transforms-2/files-2.1/31a3395230a9bd928e78ed2dc5338b8e/firebase-measurement-connector-18.0.0/AndroidManifest.xml:20:5-44
MERGED from [com.google.android.gms:play-services-gass:18.1.1] /Users/connectingsoft/.gradle/caches/transforms-2/files-2.1/08116a99daa688a4ccbee288c02c56d2/play-services-gass-18.1.1/AndroidManifest.xml:5:5-44
MERGED from [com.google.android.gms:play-services-gass:18.1.1] /Users/connectingsoft/.gradle/caches/transforms-2/files-2.1/08116a99daa688a4ccbee288c02c56d2/play-services-gass-18.1.1/AndroidManifest.xml:5:5-44
MERGED from [com.google.android.gms:play-services-basement:17.0.0] /Users/connectingsoft/.gradle/caches/transforms-2/files-2.1/0c8ad2a00ddfc6ae591800ac4e022858/jetified-play-services-basement-17.0.0/AndroidManifest.xml:20:5-44
MERGED from [com.google.android.gms:play-services-basement:17.0.0] /Users/connectingsoft/.gradle/caches/transforms-2/files-2.1/0c8ad2a00ddfc6ae591800ac4e022858/jetified-play-services-basement-17.0.0/AndroidManifest.xml:20:5-44
MERGED from [androidx.fragment:fragment:1.1.0] /Users/connectingsoft/.gradle/caches/transforms-2/files-2.1/0d479d426be2ba1f4bdfee2f9a7aa519/fragment-1.1.0/AndroidManifest.xml:20:5-22:41
MERGED from [androidx.fragment:fragment:1.1.0] /Users/connectingsoft/.gradle/caches/transforms-2/files-2.1/0d479d426be2ba1f4bdfee2f9a7aa519/fragment-1.1.0/AndroidManifest.xml:20:5-22:41
MERGED from [androidx.browser:browser:1.0.0] /Users/connectingsoft/.gradle/caches/transforms-2/files-2.1/33e5ae0b4711709cb339233c513b94a7/browser-1.0.0/AndroidManifest.xml:20:5-44
MERGED from [androidx.browser:browser:1.0.0] /Users/connectingsoft/.gradle/caches/transforms-2/files-2.1/33e5ae0b4711709cb339233c513b94a7/browser-1.0.0/AndroidManifest.xml:20:5-44
MERGED from [androidx.legacy:legacy-support-core-ui:1.0.0] /Users/connectingsoft/.gradle/caches/transforms-2/files-2.1/536c4d230adcf87aec8f00c8955f8127/legacy-support-core-ui-1.0.0/AndroidManifest.xml:20:5-44
MERGED from [androidx.legacy:legacy-support-core-ui:1.0.0] /Users/connectingsoft/.gradle/caches/transforms-2/files-2.1/536c4d230adcf87aec8f00c8955f8127/legacy-support-core-ui-1.0.0/AndroidManifest.xml:20:5-44
MERGED from [androidx.legacy:legacy-support-core-utils:1.0.0] /Users/connectingsoft/.gradle/caches/transforms-2/files-2.1/d10fe1176fa5480b064486ece15f99c1/legacy-support-core-utils-1.0.0/AndroidManifest.xml:20:5-44
MERGED from [androidx.legacy:legacy-support-core-utils:1.0.0] /Users/connectingsoft/.gradle/caches/transforms-2/files-2.1/d10fe1176fa5480b064486ece15f99c1/legacy-support-core-utils-1.0.0/AndroidManifest.xml:20:5-44
MERGED from [androidx.appcompat:appcompat-resources:1.1.0] /Users/connectingsoft/.gradle/caches/transforms-2/files-2.1/f266002780b6f62ae73a8842bc10a810/appcompat-resources-1.1.0/AndroidManifest.xml:20:5-22:41
MERGED from [androidx.appcompat:appcompat-resources:1.1.0] /Users/connectingsoft/.gradle/caches/transforms-2/files-2.1/f266002780b6f62ae73a8842bc10a810/appcompat-resources-1.1.0/AndroidManifest.xml:20:5-22:41
MERGED from [androidx.drawerlayout:drawerlayout:1.0.0] /Users/connectingsoft/.gradle/caches/transforms-2/files-2.1/6af37b0dc18acadfaf8b0344ec157d66/drawerlayout-1.0.0/AndroidManifest.xml:20:5-44
MERGED from [androidx.drawerlayout:drawerlayout:1.0.0] /Users/connectingsoft/.gradle/caches/transforms-2/files-2.1/6af37b0dc18acadfaf8b0344ec157d66/drawerlayout-1.0.0/AndroidManifest.xml:20:5-44
MERGED from [androidx.viewpager:viewpager:1.0.0] /Users/connectingsoft/.gradle/caches/transforms-2/files-2.1/4881302d1430cfdcaa10344523e2ce7f/viewpager-1.0.0/AndroidManifest.xml:20:5-44
MERGED from [androidx.viewpager:viewpager:1.0.0] /Users/connectingsoft/.gradle/caches/transforms-2/files-2.1/4881302d1430cfdcaa10344523e2ce7f/viewpager-1.0.0/AndroidManifest.xml:20:5-44
MERGED from [androidx.loader:loader:1.0.0] /Users/connectingsoft/.gradle/caches/transforms-2/files-2.1/28c8df72e3e98cf2af337943db219b6d/loader-1.0.0/AndroidManifest.xml:20:5-44
MERGED from [androidx.loader:loader:1.0.0] /Users/connectingsoft/.gradle/caches/transforms-2/files-2.1/28c8df72e3e98cf2af337943db219b6d/loader-1.0.0/AndroidManifest.xml:20:5-44
MERGED from [androidx.activity:activity:1.0.0] /Users/connectingsoft/.gradle/caches/transforms-2/files-2.1/5a1de8d3594afca67ad230d5d25a73b9/activity-1.0.0/AndroidManifest.xml:20:5-22:41
MERGED from [androidx.activity:activity:1.0.0] /Users/connectingsoft/.gradle/caches/transforms-2/files-2.1/5a1de8d3594afca67ad230d5d25a73b9/activity-1.0.0/AndroidManifest.xml:20:5-22:41
MERGED from [androidx.vectordrawable:vectordrawable-animated:1.1.0] /Users/connectingsoft/.gradle/caches/transforms-2/files-2.1/a5b8095803802f17607f1ac359c588fa/vectordrawable-animated-1.1.0/AndroidManifest.xml:20:5-22:41
MERGED from [androidx.vectordrawable:vectordrawable-animated:1.1.0] /Users/connectingsoft/.gradle/caches/transforms-2/files-2.1/a5b8095803802f17607f1ac359c588fa/vectordrawable-animated-1.1.0/AndroidManifest.xml:20:5-22:41
MERGED from [androidx.vectordrawable:vectordrawable:1.1.0] /Users/connectingsoft/.gradle/caches/transforms-2/files-2.1/06d80eb16b557b026bc1ef456724990c/vectordrawable-1.1.0/AndroidManifest.xml:20:5-22:41
MERGED from [androidx.vectordrawable:vectordrawable:1.1.0] /Users/connectingsoft/.gradle/caches/transforms-2/files-2.1/06d80eb16b557b026bc1ef456724990c/vectordrawable-1.1.0/AndroidManifest.xml:20:5-22:41
MERGED from [androidx.coordinatorlayout:coordinatorlayout:1.0.0] /Users/connectingsoft/.gradle/caches/transforms-2/files-2.1/d255798b3263f4a3c8e304b7de4de531/coordinatorlayout-1.0.0/AndroidManifest.xml:20:5-44
MERGED from [androidx.coordinatorlayout:coordinatorlayout:1.0.0] /Users/connectingsoft/.gradle/caches/transforms-2/files-2.1/d255798b3263f4a3c8e304b7de4de531/coordinatorlayout-1.0.0/AndroidManifest.xml:20:5-44
MERGED from [androidx.slidingpanelayout:slidingpanelayout:1.0.0] /Users/connectingsoft/.gradle/caches/transforms-2/files-2.1/3008a15222323dd0393f3314747b2d3a/slidingpanelayout-1.0.0/AndroidManifest.xml:20:5-44
MERGED from [androidx.slidingpanelayout:slidingpanelayout:1.0.0] /Users/connectingsoft/.gradle/caches/transforms-2/files-2.1/3008a15222323dd0393f3314747b2d3a/slidingpanelayout-1.0.0/AndroidManifest.xml:20:5-44
MERGED from [androidx.customview:customview:1.0.0] /Users/connectingsoft/.gradle/caches/transforms-2/files-2.1/31cd047ed3ec37dce69ba9f16e10a05d/customview-1.0.0/AndroidManifest.xml:20:5-44
MERGED from [androidx.customview:customview:1.0.0] /Users/connectingsoft/.gradle/caches/transforms-2/files-2.1/31cd047ed3ec37dce69ba9f16e10a05d/customview-1.0.0/AndroidManifest.xml:20:5-44
MERGED from [androidx.swiperefreshlayout:swiperefreshlayout:1.0.0] /Users/connectingsoft/.gradle/caches/transforms-2/files-2.1/5a5d53679d914b768463e606a8e8f920/swiperefreshlayout-1.0.0/AndroidManifest.xml:20:5-44
MERGED from [androidx.swiperefreshlayout:swiperefreshlayout:1.0.0] /Users/connectingsoft/.gradle/caches/transforms-2/files-2.1/5a5d53679d914b768463e606a8e8f920/swiperefreshlayout-1.0.0/AndroidManifest.xml:20:5-44
MERGED from [androidx.asynclayoutinflater:asynclayoutinflater:1.0.0] /Users/connectingsoft/.gradle/caches/transforms-2/files-2.1/2ecca17b0eb70fcbc1e9d8148641257d/asynclayoutinflater-1.0.0/AndroidManifest.xml:20:5-44
MERGED from [androidx.asynclayoutinflater:asynclayoutinflater:1.0.0] /Users/connectingsoft/.gradle/caches/transforms-2/files-2.1/2ecca17b0eb70fcbc1e9d8148641257d/asynclayoutinflater-1.0.0/AndroidManifest.xml:20:5-44
MERGED from [androidx.core:core:1.2.0] /Users/connectingsoft/.gradle/caches/transforms-2/files-2.1/35f29bb1a578f0319e9c3e21730b6b49/core-1.2.0/AndroidManifest.xml:20:5-22:41
MERGED from [androidx.core:core:1.2.0] /Users/connectingsoft/.gradle/caches/transforms-2/files-2.1/35f29bb1a578f0319e9c3e21730b6b49/core-1.2.0/AndroidManifest.xml:20:5-22:41
MERGED from [androidx.lifecycle:lifecycle-runtime:2.2.0] /Users/connectingsoft/.gradle/caches/transforms-2/files-2.1/00db72760b3662c4528b816b17c43995/lifecycle-runtime-2.2.0/AndroidManifest.xml:20:5-22:41
MERGED from [androidx.lifecycle:lifecycle-runtime:2.2.0] /Users/connectingsoft/.gradle/caches/transforms-2/files-2.1/00db72760b3662c4528b816b17c43995/lifecycle-runtime-2.2.0/AndroidManifest.xml:20:5-22:41
MERGED from [androidx.savedstate:savedstate:1.0.0] /Users/connectingsoft/.gradle/caches/transforms-2/files-2.1/13eb812daeca5edd5883d98298d1a9d8/savedstate-1.0.0/AndroidManifest.xml:20:5-22:41
MERGED from [androidx.savedstate:savedstate:1.0.0] /Users/connectingsoft/.gradle/caches/transforms-2/files-2.1/13eb812daeca5edd5883d98298d1a9d8/savedstate-1.0.0/AndroidManifest.xml:20:5-22:41
MERGED from [androidx.lifecycle:lifecycle-livedata:2.0.0] /Users/connectingsoft/.gradle/caches/transforms-2/files-2.1/82b463c8584fb88ea5a1f562d740c4b7/lifecycle-livedata-2.0.0/AndroidManifest.xml:20:5-44
MERGED from [androidx.lifecycle:lifecycle-livedata:2.0.0] /Users/connectingsoft/.gradle/caches/transforms-2/files-2.1/82b463c8584fb88ea5a1f562d740c4b7/lifecycle-livedata-2.0.0/AndroidManifest.xml:20:5-44
MERGED from [androidx.lifecycle:lifecycle-livedata-core:2.0.0] /Users/connectingsoft/.gradle/caches/transforms-2/files-2.1/a78ce9b49fd39a3eac90624d04d1ee8a/lifecycle-livedata-core-2.0.0/AndroidManifest.xml:20:5-44
MERGED from [androidx.lifecycle:lifecycle-livedata-core:2.0.0] /Users/connectingsoft/.gradle/caches/transforms-2/files-2.1/a78ce9b49fd39a3eac90624d04d1ee8a/lifecycle-livedata-core-2.0.0/AndroidManifest.xml:20:5-44
MERGED from [com.google.firebase:firebase-components:16.0.0] /Users/connectingsoft/.gradle/caches/transforms-2/files-2.1/1f9ad27fb80a3ad71997bcb058f5c855/jetified-firebase-components-16.0.0/AndroidManifest.xml:19:5-21:41
MERGED from [com.google.firebase:firebase-components:16.0.0] /Users/connectingsoft/.gradle/caches/transforms-2/files-2.1/1f9ad27fb80a3ad71997bcb058f5c855/jetified-firebase-components-16.0.0/AndroidManifest.xml:19:5-21:41
MERGED from [androidx.cursoradapter:cursoradapter:1.0.0] /Users/connectingsoft/.gradle/caches/transforms-2/files-2.1/07713a4b02ecb1ede5529340586b2906/cursoradapter-1.0.0/AndroidManifest.xml:20:5-44
MERGED from [androidx.cursoradapter:cursoradapter:1.0.0] /Users/connectingsoft/.gradle/caches/transforms-2/files-2.1/07713a4b02ecb1ede5529340586b2906/cursoradapter-1.0.0/AndroidManifest.xml:20:5-44
MERGED from [com.github.bumptech.glide:gifdecoder:4.11.0] /Users/connectingsoft/.gradle/caches/transforms-2/files-2.1/65a5a8e8db79d7e1680f7d5a4cad2d28/gifdecoder-4.11.0/AndroidManifest.xml:5:5-7:41
MERGED from [com.github.bumptech.glide:gifdecoder:4.11.0] /Users/connectingsoft/.gradle/caches/transforms-2/files-2.1/65a5a8e8db79d7e1680f7d5a4cad2d28/gifdecoder-4.11.0/AndroidManifest.xml:5:5-7:41
MERGED from [androidx.arch.core:core-runtime:2.0.0] /Users/connectingsoft/.gradle/caches/transforms-2/files-2.1/3bf5fc05ca184d01c3bed36c84f7c6c7/core-runtime-2.0.0/AndroidManifest.xml:20:5-44
MERGED from [androidx.arch.core:core-runtime:2.0.0] /Users/connectingsoft/.gradle/caches/transforms-2/files-2.1/3bf5fc05ca184d01c3bed36c84f7c6c7/core-runtime-2.0.0/AndroidManifest.xml:20:5-44
MERGED from [androidx.versionedparcelable:versionedparcelable:1.1.0] /Users/connectingsoft/.gradle/caches/transforms-2/files-2.1/4227c25f5adddf6ac1aa1a65c6b6f6a4/versionedparcelable-1.1.0/AndroidManifest.xml:20:5-22:41
MERGED from [androidx.versionedparcelable:versionedparcelable:1.1.0] /Users/connectingsoft/.gradle/caches/transforms-2/files-2.1/4227c25f5adddf6ac1aa1a65c6b6f6a4/versionedparcelable-1.1.0/AndroidManifest.xml:20:5-22:41
MERGED from [androidx.documentfile:documentfile:1.0.0] /Users/connectingsoft/.gradle/caches/transforms-2/files-2.1/ec735b528ee8f52f56a38a2f27a69a4b/documentfile-1.0.0/AndroidManifest.xml:20:5-44
MERGED from [androidx.documentfile:documentfile:1.0.0] /Users/connectingsoft/.gradle/caches/transforms-2/files-2.1/ec735b528ee8f52f56a38a2f27a69a4b/documentfile-1.0.0/AndroidManifest.xml:20:5-44
MERGED from [androidx.localbroadcastmanager:localbroadcastmanager:1.0.0] /Users/connectingsoft/.gradle/caches/transforms-2/files-2.1/c8f4c2580dddd9ecf64fc10bf9fbc418/localbroadcastmanager-1.0.0/AndroidManifest.xml:20:5-44
MERGED from [androidx.localbroadcastmanager:localbroadcastmanager:1.0.0] /Users/connectingsoft/.gradle/caches/transforms-2/files-2.1/c8f4c2580dddd9ecf64fc10bf9fbc418/localbroadcastmanager-1.0.0/AndroidManifest.xml:20:5-44
MERGED from [androidx.print:print:1.0.0] /Users/connectingsoft/.gradle/caches/transforms-2/files-2.1/dff04f4f27a157ea6f57a15b661fd9d7/print-1.0.0/AndroidManifest.xml:20:5-44
MERGED from [androidx.print:print:1.0.0] /Users/connectingsoft/.gradle/caches/transforms-2/files-2.1/dff04f4f27a157ea6f57a15b661fd9d7/print-1.0.0/AndroidManifest.xml:20:5-44
MERGED from [androidx.lifecycle:lifecycle-viewmodel:2.1.0] /Users/connectingsoft/.gradle/caches/transforms-2/files-2.1/d51e0220d8e43d4bfbf3a1c4895b8a97/lifecycle-viewmodel-2.1.0/AndroidManifest.xml:20:5-44
MERGED from [androidx.lifecycle:lifecycle-viewmodel:2.1.0] /Users/connectingsoft/.gradle/caches/transforms-2/files-2.1/d51e0220d8e43d4bfbf3a1c4895b8a97/lifecycle-viewmodel-2.1.0/AndroidManifest.xml:20:5-44
MERGED from [androidx.interpolator:interpolator:1.0.0] /Users/connectingsoft/.gradle/caches/transforms-2/files-2.1/b59192acc39c8e1083525bb1a0764fd3/interpolator-1.0.0/AndroidManifest.xml:20:5-44
MERGED from [androidx.interpolator:interpolator:1.0.0] /Users/connectingsoft/.gradle/caches/transforms-2/files-2.1/b59192acc39c8e1083525bb1a0764fd3/interpolator-1.0.0/AndroidManifest.xml:20:5-44
MERGED from [com.google.android.gms:play-services-ads-base:18.1.1] /Users/connectingsoft/.gradle/caches/transforms-2/files-2.1/fd2966a5ffabf0512fb016d54587372f/play-services-ads-base-18.1.1/AndroidManifest.xml:5:5-44
MERGED from [com.google.android.gms:play-services-ads-base:18.1.1] /Users/connectingsoft/.gradle/caches/transforms-2/files-2.1/fd2966a5ffabf0512fb016d54587372f/play-services-ads-base-18.1.1/AndroidManifest.xml:5:5-44
INJECTED from /Users/connectingsoft/Desktop/FlutterProjects/swftea-flutter/android/app/src/main/AndroidManifest.xml
INJECTED from /Users/connectingsoft/Desktop/FlutterProjects/swftea-flutter/android/app/src/main/AndroidManifest.xml
	tools:overrideLibrary
		ADDED from [com.google.android.gms:play-services-ads:18.1.1] /Users/connectingsoft/.gradle/caches/transforms-2/files-2.1/871e82e51a29368ab6bdcebbeef22097/jetified-play-services-ads-18.1.1/AndroidManifest.xml:23:9-49
	android:targetSdkVersion
		INJECTED from /Users/connectingsoft/Desktop/FlutterProjects/swftea-flutter/android/app/src/main/AndroidManifest.xml
		ADDED from /Users/connectingsoft/Desktop/FlutterProjects/swftea-flutter/android/app/src/main/AndroidManifest.xml
		INJECTED from /Users/connectingsoft/Desktop/FlutterProjects/swftea-flutter/android/app/src/main/AndroidManifest.xml
	android:minSdkVersion
		INJECTED from /Users/connectingsoft/Desktop/FlutterProjects/swftea-flutter/android/app/src/main/AndroidManifest.xml
		ADDED from /Users/connectingsoft/Desktop/FlutterProjects/swftea-flutter/android/app/src/main/AndroidManifest.xml
		INJECTED from /Users/connectingsoft/Desktop/FlutterProjects/swftea-flutter/android/app/src/main/AndroidManifest.xml
uses-permission#android.permission.READ_EXTERNAL_STORAGE
ADDED from [:photo_manager] /Users/connectingsoft/Desktop/FlutterProjects/swftea-flutter/build/photo_manager/intermediates/library_manifest/release/AndroidManifest.xml:8:5-80
MERGED from [:image_picker] /Users/connectingsoft/Desktop/FlutterProjects/swftea-flutter/build/image_picker/intermediates/library_manifest/release/AndroidManifest.xml:7:5-80
MERGED from [:image_picker] /Users/connectingsoft/Desktop/FlutterProjects/swftea-flutter/build/image_picker/intermediates/library_manifest/release/AndroidManifest.xml:7:5-80
	android:name
		ADDED from [:photo_manager] /Users/connectingsoft/Desktop/FlutterProjects/swftea-flutter/build/photo_manager/intermediates/library_manifest/release/AndroidManifest.xml:8:22-77
uses-permission#android.permission.ACCESS_MEDIA_LOCATION
ADDED from [:photo_manager] /Users/connectingsoft/Desktop/FlutterProjects/swftea-flutter/build/photo_manager/intermediates/library_manifest/release/AndroidManifest.xml:9:5-80
	android:name
		ADDED from [:photo_manager] /Users/connectingsoft/Desktop/FlutterProjects/swftea-flutter/build/photo_manager/intermediates/library_manifest/release/AndroidManifest.xml:9:22-77
provider#io.flutter.plugins.imagepicker.ImagePickerFileProvider
ADDED from [:image_picker] /Users/connectingsoft/Desktop/FlutterProjects/swftea-flutter/build/image_picker/intermediates/library_manifest/release/AndroidManifest.xml:11:9-19:20
	android:grantUriPermissions
		ADDED from [:image_picker] /Users/connectingsoft/Desktop/FlutterProjects/swftea-flutter/build/image_picker/intermediates/library_manifest/release/AndroidManifest.xml:15:13-47
	android:authorities
		ADDED from [:image_picker] /Users/connectingsoft/Desktop/FlutterProjects/swftea-flutter/build/image_picker/intermediates/library_manifest/release/AndroidManifest.xml:13:13-74
	android:exported
		ADDED from [:image_picker] /Users/connectingsoft/Desktop/FlutterProjects/swftea-flutter/build/image_picker/intermediates/library_manifest/release/AndroidManifest.xml:14:13-37
	android:name
		ADDED from [:image_picker] /Users/connectingsoft/Desktop/FlutterProjects/swftea-flutter/build/image_picker/intermediates/library_manifest/release/AndroidManifest.xml:12:13-82
meta-data#android.support.FILE_PROVIDER_PATHS
ADDED from [:image_picker] /Users/connectingsoft/Desktop/FlutterProjects/swftea-flutter/build/image_picker/intermediates/library_manifest/release/AndroidManifest.xml:16:13-18:75
	android:resource
		ADDED from [:image_picker] /Users/connectingsoft/Desktop/FlutterProjects/swftea-flutter/build/image_picker/intermediates/library_manifest/release/AndroidManifest.xml:18:17-72
	android:name
		ADDED from [:image_picker] /Users/connectingsoft/Desktop/FlutterProjects/swftea-flutter/build/image_picker/intermediates/library_manifest/release/AndroidManifest.xml:17:17-67
service#com.google.firebase.components.ComponentDiscoveryService
ADDED from [:firebase_core] /Users/connectingsoft/Desktop/FlutterProjects/swftea-flutter/build/firebase_core/intermediates/library_manifest/release/AndroidManifest.xml:8:9-12:19
MERGED from [com.google.android.gms:play-services-measurement-api:17.5.0] /Users/connectingsoft/.gradle/caches/transforms-2/files-2.1/d751e1e5368e6ac07484e7b258ca1942/play-services-measurement-api-17.5.0/AndroidManifest.xml:27:9-33:19
MERGED from [com.google.android.gms:play-services-measurement-api:17.5.0] /Users/connectingsoft/.gradle/caches/transforms-2/files-2.1/d751e1e5368e6ac07484e7b258ca1942/play-services-measurement-api-17.5.0/AndroidManifest.xml:27:9-33:19
MERGED from [com.google.firebase:firebase-installations:16.3.2] /Users/connectingsoft/.gradle/caches/transforms-2/files-2.1/a6beb7a08bb153d99f4a6b1869466e43/firebase-installations-16.3.2/AndroidManifest.xml:14:9-20:19
MERGED from [com.google.firebase:firebase-installations:16.3.2] /Users/connectingsoft/.gradle/caches/transforms-2/files-2.1/a6beb7a08bb153d99f4a6b1869466e43/firebase-installations-16.3.2/AndroidManifest.xml:14:9-20:19
MERGED from [com.google.firebase:firebase-common:19.3.0] /Users/connectingsoft/.gradle/caches/transforms-2/files-2.1/b4d70312b78f53c88af6af54a360b32c/jetified-firebase-common-19.3.0/AndroidManifest.xml:32:9-36:35
MERGED from [com.google.firebase:firebase-common:19.3.0] /Users/connectingsoft/.gradle/caches/transforms-2/files-2.1/b4d70312b78f53c88af6af54a360b32c/jetified-firebase-common-19.3.0/AndroidManifest.xml:32:9-36:35
	android:exported
		ADDED from [com.google.android.gms:play-services-measurement-api:17.5.0] /Users/connectingsoft/.gradle/caches/transforms-2/files-2.1/d751e1e5368e6ac07484e7b258ca1942/play-services-measurement-api-17.5.0/AndroidManifest.xml:29:13-37
	tools:targetApi
		ADDED from [com.google.firebase:firebase-common:19.3.0] /Users/connectingsoft/.gradle/caches/transforms-2/files-2.1/b4d70312b78f53c88af6af54a360b32c/jetified-firebase-common-19.3.0/AndroidManifest.xml:36:13-32
	android:directBootAware
		ADDED from [com.google.firebase:firebase-common:19.3.0] /Users/connectingsoft/.gradle/caches/transforms-2/files-2.1/b4d70312b78f53c88af6af54a360b32c/jetified-firebase-common-19.3.0/AndroidManifest.xml:34:13-43
	android:name
		ADDED from [:firebase_core] /Users/connectingsoft/Desktop/FlutterProjects/swftea-flutter/build/firebase_core/intermediates/library_manifest/release/AndroidManifest.xml:8:18-89
meta-data#com.google.firebase.components:io.flutter.plugins.firebase.core.FlutterFirebaseAppRegistrar
ADDED from [:firebase_core] /Users/connectingsoft/Desktop/FlutterProjects/swftea-flutter/build/firebase_core/intermediates/library_manifest/release/AndroidManifest.xml:9:13-11:85
	android:value
		ADDED from [:firebase_core] /Users/connectingsoft/Desktop/FlutterProjects/swftea-flutter/build/firebase_core/intermediates/library_manifest/release/AndroidManifest.xml:11:17-82
	android:name
		ADDED from [:firebase_core] /Users/connectingsoft/Desktop/FlutterProjects/swftea-flutter/build/firebase_core/intermediates/library_manifest/release/AndroidManifest.xml:10:17-123
activity#io.flutter.plugins.urllauncher.WebViewActivity
ADDED from [:url_launcher] /Users/connectingsoft/Desktop/FlutterProjects/swftea-flutter/build/url_launcher/intermediates/library_manifest/release/AndroidManifest.xml:8:9-11:74
	android:exported
		ADDED from [:url_launcher] /Users/connectingsoft/Desktop/FlutterProjects/swftea-flutter/build/url_launcher/intermediates/library_manifest/release/AndroidManifest.xml:10:13-37
	android:theme
		ADDED from [:url_launcher] /Users/connectingsoft/Desktop/FlutterProjects/swftea-flutter/build/url_launcher/intermediates/library_manifest/release/AndroidManifest.xml:11:13-71
	android:name
		ADDED from [:url_launcher] /Users/connectingsoft/Desktop/FlutterProjects/swftea-flutter/build/url_launcher/intermediates/library_manifest/release/AndroidManifest.xml:9:13-74
uses-permission#android.permission.ACCESS_NETWORK_STATE
ADDED from [com.google.android.gms:play-services-ads-lite:18.1.1] /Users/connectingsoft/.gradle/caches/transforms-2/files-2.1/7c3787d3ff10d1637991d3ea32ec217c/play-services-ads-lite-18.1.1/AndroidManifest.xml:24:5-79
MERGED from [com.google.android.gms:play-services-measurement:17.5.0] /Users/connectingsoft/.gradle/caches/transforms-2/files-2.1/e9973ab53e0e0ab3a5a85762e8cae3ab/play-services-measurement-17.5.0/AndroidManifest.xml:24:5-79
MERGED from [com.google.android.gms:play-services-measurement:17.5.0] /Users/connectingsoft/.gradle/caches/transforms-2/files-2.1/e9973ab53e0e0ab3a5a85762e8cae3ab/play-services-measurement-17.5.0/AndroidManifest.xml:24:5-79
MERGED from [com.google.android.gms:play-services-measurement-api:17.5.0] /Users/connectingsoft/.gradle/caches/transforms-2/files-2.1/d751e1e5368e6ac07484e7b258ca1942/play-services-measurement-api-17.5.0/AndroidManifest.xml:23:5-79
MERGED from [com.google.android.gms:play-services-measurement-api:17.5.0] /Users/connectingsoft/.gradle/caches/transforms-2/files-2.1/d751e1e5368e6ac07484e7b258ca1942/play-services-measurement-api-17.5.0/AndroidManifest.xml:23:5-79
MERGED from [com.google.android.exoplayer:exoplayer-core:2.9.6] /Users/connectingsoft/.gradle/caches/transforms-2/files-2.1/a180a139ad0492cc012b9844c27d5650/jetified-exoplayer-core-2.9.6/AndroidManifest.xml:24:5-79
MERGED from [com.google.android.exoplayer:exoplayer-core:2.9.6] /Users/connectingsoft/.gradle/caches/transforms-2/files-2.1/a180a139ad0492cc012b9844c27d5650/jetified-exoplayer-core-2.9.6/AndroidManifest.xml:24:5-79
MERGED from [com.google.android.gms:play-services-measurement-impl:17.5.0] /Users/connectingsoft/.gradle/caches/transforms-2/files-2.1/7d1c3ef02e96dfb3982cb45a906654ba/play-services-measurement-impl-17.5.0/AndroidManifest.xml:24:5-79
MERGED from [com.google.android.gms:play-services-measurement-impl:17.5.0] /Users/connectingsoft/.gradle/caches/transforms-2/files-2.1/7d1c3ef02e96dfb3982cb45a906654ba/play-services-measurement-impl-17.5.0/AndroidManifest.xml:24:5-79
MERGED from [com.google.android.gms:play-services-measurement-sdk-api:17.5.0] /Users/connectingsoft/.gradle/caches/transforms-2/files-2.1/5f2682a3b0bc0bcbaeae6897b083d2cb/play-services-measurement-sdk-api-17.5.0/AndroidManifest.xml:24:5-79
MERGED from [com.google.android.gms:play-services-measurement-sdk-api:17.5.0] /Users/connectingsoft/.gradle/caches/transforms-2/files-2.1/5f2682a3b0bc0bcbaeae6897b083d2cb/play-services-measurement-sdk-api-17.5.0/AndroidManifest.xml:24:5-79
MERGED from [com.google.firebase:firebase-installations:16.3.2] /Users/connectingsoft/.gradle/caches/transforms-2/files-2.1/a6beb7a08bb153d99f4a6b1869466e43/firebase-installations-16.3.2/AndroidManifest.xml:10:5-79
MERGED from [com.google.firebase:firebase-installations:16.3.2] /Users/connectingsoft/.gradle/caches/transforms-2/files-2.1/a6beb7a08bb153d99f4a6b1869466e43/firebase-installations-16.3.2/AndroidManifest.xml:10:5-79
	android:name
		ADDED from [com.google.android.gms:play-services-ads-lite:18.1.1] /Users/connectingsoft/.gradle/caches/transforms-2/files-2.1/7c3787d3ff10d1637991d3ea32ec217c/play-services-ads-lite-18.1.1/AndroidManifest.xml:24:22-76
activity#com.google.android.gms.ads.AdActivity
ADDED from [com.google.android.gms:play-services-ads-lite:18.1.1] /Users/connectingsoft/.gradle/caches/transforms-2/files-2.1/7c3787d3ff10d1637991d3ea32ec217c/play-services-ads-lite-18.1.1/AndroidManifest.xml:29:9-33:64
	android:exported
		ADDED from [com.google.android.gms:play-services-ads-lite:18.1.1] /Users/connectingsoft/.gradle/caches/transforms-2/files-2.1/7c3787d3ff10d1637991d3ea32ec217c/play-services-ads-lite-18.1.1/AndroidManifest.xml:32:13-37
	android:configChanges
		ADDED from [com.google.android.gms:play-services-ads-lite:18.1.1] /Users/connectingsoft/.gradle/caches/transforms-2/files-2.1/7c3787d3ff10d1637991d3ea32ec217c/play-services-ads-lite-18.1.1/AndroidManifest.xml:31:13-122
	android:theme
		ADDED from [com.google.android.gms:play-services-ads-lite:18.1.1] /Users/connectingsoft/.gradle/caches/transforms-2/files-2.1/7c3787d3ff10d1637991d3ea32ec217c/play-services-ads-lite-18.1.1/AndroidManifest.xml:33:13-61
	android:name
		ADDED from [com.google.android.gms:play-services-ads-lite:18.1.1] /Users/connectingsoft/.gradle/caches/transforms-2/files-2.1/7c3787d3ff10d1637991d3ea32ec217c/play-services-ads-lite-18.1.1/AndroidManifest.xml:30:13-65
provider#com.google.android.gms.ads.MobileAdsInitProvider
ADDED from [com.google.android.gms:play-services-ads-lite:18.1.1] /Users/connectingsoft/.gradle/caches/transforms-2/files-2.1/7c3787d3ff10d1637991d3ea32ec217c/play-services-ads-lite-18.1.1/AndroidManifest.xml:35:9-39:39
	android:authorities
		ADDED from [com.google.android.gms:play-services-ads-lite:18.1.1] /Users/connectingsoft/.gradle/caches/transforms-2/files-2.1/7c3787d3ff10d1637991d3ea32ec217c/play-services-ads-lite-18.1.1/AndroidManifest.xml:37:13-73
	android:exported
		ADDED from [com.google.android.gms:play-services-ads-lite:18.1.1] /Users/connectingsoft/.gradle/caches/transforms-2/files-2.1/7c3787d3ff10d1637991d3ea32ec217c/play-services-ads-lite-18.1.1/AndroidManifest.xml:38:13-37
	android:initOrder
		ADDED from [com.google.android.gms:play-services-ads-lite:18.1.1] /Users/connectingsoft/.gradle/caches/transforms-2/files-2.1/7c3787d3ff10d1637991d3ea32ec217c/play-services-ads-lite-18.1.1/AndroidManifest.xml:39:13-36
	android:name
		ADDED from [com.google.android.gms:play-services-ads-lite:18.1.1] /Users/connectingsoft/.gradle/caches/transforms-2/files-2.1/7c3787d3ff10d1637991d3ea32ec217c/play-services-ads-lite-18.1.1/AndroidManifest.xml:36:13-76
uses-permission#android.permission.WAKE_LOCK
ADDED from [com.google.android.gms:play-services-measurement:17.5.0] /Users/connectingsoft/.gradle/caches/transforms-2/files-2.1/e9973ab53e0e0ab3a5a85762e8cae3ab/play-services-measurement-17.5.0/AndroidManifest.xml:25:5-68
MERGED from [com.google.android.gms:play-services-measurement-api:17.5.0] /Users/connectingsoft/.gradle/caches/transforms-2/files-2.1/d751e1e5368e6ac07484e7b258ca1942/play-services-measurement-api-17.5.0/AndroidManifest.xml:24:5-68
MERGED from [com.google.android.gms:play-services-measurement-api:17.5.0] /Users/connectingsoft/.gradle/caches/transforms-2/files-2.1/d751e1e5368e6ac07484e7b258ca1942/play-services-measurement-api-17.5.0/AndroidManifest.xml:24:5-68
MERGED from [com.google.android.gms:play-services-measurement-impl:17.5.0] /Users/connectingsoft/.gradle/caches/transforms-2/files-2.1/7d1c3ef02e96dfb3982cb45a906654ba/play-services-measurement-impl-17.5.0/AndroidManifest.xml:25:5-68
MERGED from [com.google.android.gms:play-services-measurement-impl:17.5.0] /Users/connectingsoft/.gradle/caches/transforms-2/files-2.1/7d1c3ef02e96dfb3982cb45a906654ba/play-services-measurement-impl-17.5.0/AndroidManifest.xml:25:5-68
MERGED from [com.google.android.gms:play-services-measurement-sdk-api:17.5.0] /Users/connectingsoft/.gradle/caches/transforms-2/files-2.1/5f2682a3b0bc0bcbaeae6897b083d2cb/play-services-measurement-sdk-api-17.5.0/AndroidManifest.xml:25:5-68
MERGED from [com.google.android.gms:play-services-measurement-sdk-api:17.5.0] /Users/connectingsoft/.gradle/caches/transforms-2/files-2.1/5f2682a3b0bc0bcbaeae6897b083d2cb/play-services-measurement-sdk-api-17.5.0/AndroidManifest.xml:25:5-68
	android:name
		ADDED from [com.google.android.gms:play-services-measurement:17.5.0] /Users/connectingsoft/.gradle/caches/transforms-2/files-2.1/e9973ab53e0e0ab3a5a85762e8cae3ab/play-services-measurement-17.5.0/AndroidManifest.xml:25:22-65
uses-permission#com.google.android.finsky.permission.BIND_GET_INSTALL_REFERRER_SERVICE
ADDED from [com.google.android.gms:play-services-measurement:17.5.0] /Users/connectingsoft/.gradle/caches/transforms-2/files-2.1/e9973ab53e0e0ab3a5a85762e8cae3ab/play-services-measurement-17.5.0/AndroidManifest.xml:26:5-110
MERGED from [com.google.android.gms:play-services-measurement-impl:17.5.0] /Users/connectingsoft/.gradle/caches/transforms-2/files-2.1/7d1c3ef02e96dfb3982cb45a906654ba/play-services-measurement-impl-17.5.0/AndroidManifest.xml:26:5-110
MERGED from [com.google.android.gms:play-services-measurement-impl:17.5.0] /Users/connectingsoft/.gradle/caches/transforms-2/files-2.1/7d1c3ef02e96dfb3982cb45a906654ba/play-services-measurement-impl-17.5.0/AndroidManifest.xml:26:5-110
	android:name
		ADDED from [com.google.android.gms:play-services-measurement:17.5.0] /Users/connectingsoft/.gradle/caches/transforms-2/files-2.1/e9973ab53e0e0ab3a5a85762e8cae3ab/play-services-measurement-17.5.0/AndroidManifest.xml:26:22-107
receiver#com.google.android.gms.measurement.AppMeasurementReceiver
ADDED from [com.google.android.gms:play-services-measurement:17.5.0] /Users/connectingsoft/.gradle/caches/transforms-2/files-2.1/e9973ab53e0e0ab3a5a85762e8cae3ab/play-services-measurement-17.5.0/AndroidManifest.xml:29:9-33:20
	android:enabled
		ADDED from [com.google.android.gms:play-services-measurement:17.5.0] /Users/connectingsoft/.gradle/caches/transforms-2/files-2.1/e9973ab53e0e0ab3a5a85762e8cae3ab/play-services-measurement-17.5.0/AndroidManifest.xml:31:13-35
	android:exported
		ADDED from [com.google.android.gms:play-services-measurement:17.5.0] /Users/connectingsoft/.gradle/caches/transforms-2/files-2.1/e9973ab53e0e0ab3a5a85762e8cae3ab/play-services-measurement-17.5.0/AndroidManifest.xml:32:13-37
	android:name
		ADDED from [com.google.android.gms:play-services-measurement:17.5.0] /Users/connectingsoft/.gradle/caches/transforms-2/files-2.1/e9973ab53e0e0ab3a5a85762e8cae3ab/play-services-measurement-17.5.0/AndroidManifest.xml:30:13-85
service#com.google.android.gms.measurement.AppMeasurementService
ADDED from [com.google.android.gms:play-services-measurement:17.5.0] /Users/connectingsoft/.gradle/caches/transforms-2/files-2.1/e9973ab53e0e0ab3a5a85762e8cae3ab/play-services-measurement-17.5.0/AndroidManifest.xml:35:9-38:40
	android:enabled
		ADDED from [com.google.android.gms:play-services-measurement:17.5.0] /Users/connectingsoft/.gradle/caches/transforms-2/files-2.1/e9973ab53e0e0ab3a5a85762e8cae3ab/play-services-measurement-17.5.0/AndroidManifest.xml:37:13-35
	android:exported
		ADDED from [com.google.android.gms:play-services-measurement:17.5.0] /Users/connectingsoft/.gradle/caches/transforms-2/files-2.1/e9973ab53e0e0ab3a5a85762e8cae3ab/play-services-measurement-17.5.0/AndroidManifest.xml:38:13-37
	android:name
		ADDED from [com.google.android.gms:play-services-measurement:17.5.0] /Users/connectingsoft/.gradle/caches/transforms-2/files-2.1/e9973ab53e0e0ab3a5a85762e8cae3ab/play-services-measurement-17.5.0/AndroidManifest.xml:36:13-84
service#com.google.android.gms.measurement.AppMeasurementJobService
ADDED from [com.google.android.gms:play-services-measurement:17.5.0] /Users/connectingsoft/.gradle/caches/transforms-2/files-2.1/e9973ab53e0e0ab3a5a85762e8cae3ab/play-services-measurement-17.5.0/AndroidManifest.xml:39:9-43:72
	android:enabled
		ADDED from [com.google.android.gms:play-services-measurement:17.5.0] /Users/connectingsoft/.gradle/caches/transforms-2/files-2.1/e9973ab53e0e0ab3a5a85762e8cae3ab/play-services-measurement-17.5.0/AndroidManifest.xml:41:13-35
	android:exported
		ADDED from [com.google.android.gms:play-services-measurement:17.5.0] /Users/connectingsoft/.gradle/caches/transforms-2/files-2.1/e9973ab53e0e0ab3a5a85762e8cae3ab/play-services-measurement-17.5.0/AndroidManifest.xml:42:13-37
	android:permission
		ADDED from [com.google.android.gms:play-services-measurement:17.5.0] /Users/connectingsoft/.gradle/caches/transforms-2/files-2.1/e9973ab53e0e0ab3a5a85762e8cae3ab/play-services-measurement-17.5.0/AndroidManifest.xml:43:13-69
	android:name
		ADDED from [com.google.android.gms:play-services-measurement:17.5.0] /Users/connectingsoft/.gradle/caches/transforms-2/files-2.1/e9973ab53e0e0ab3a5a85762e8cae3ab/play-services-measurement-17.5.0/AndroidManifest.xml:40:13-87
meta-data#com.google.firebase.components:com.google.firebase.analytics.connector.internal.AnalyticsConnectorRegistrar
ADDED from [com.google.android.gms:play-services-measurement-api:17.5.0] /Users/connectingsoft/.gradle/caches/transforms-2/files-2.1/d751e1e5368e6ac07484e7b258ca1942/play-services-measurement-api-17.5.0/AndroidManifest.xml:30:13-32:85
	android:value
		ADDED from [com.google.android.gms:play-services-measurement-api:17.5.0] /Users/connectingsoft/.gradle/caches/transforms-2/files-2.1/d751e1e5368e6ac07484e7b258ca1942/play-services-measurement-api-17.5.0/AndroidManifest.xml:32:17-82
	android:name
		ADDED from [com.google.android.gms:play-services-measurement-api:17.5.0] /Users/connectingsoft/.gradle/caches/transforms-2/files-2.1/d751e1e5368e6ac07484e7b258ca1942/play-services-measurement-api-17.5.0/AndroidManifest.xml:31:17-139
meta-data#com.google.firebase.components:com.google.firebase.installations.FirebaseInstallationsRegistrar
ADDED from [com.google.firebase:firebase-installations:16.3.2] /Users/connectingsoft/.gradle/caches/transforms-2/files-2.1/a6beb7a08bb153d99f4a6b1869466e43/firebase-installations-16.3.2/AndroidManifest.xml:17:13-19:85
	android:value
		ADDED from [com.google.firebase:firebase-installations:16.3.2] /Users/connectingsoft/.gradle/caches/transforms-2/files-2.1/a6beb7a08bb153d99f4a6b1869466e43/firebase-installations-16.3.2/AndroidManifest.xml:19:17-82
	android:name
		ADDED from [com.google.firebase:firebase-installations:16.3.2] /Users/connectingsoft/.gradle/caches/transforms-2/files-2.1/a6beb7a08bb153d99f4a6b1869466e43/firebase-installations-16.3.2/AndroidManifest.xml:18:17-127
provider#com.google.firebase.provider.FirebaseInitProvider
ADDED from [com.google.firebase:firebase-common:19.3.0] /Users/connectingsoft/.gradle/caches/transforms-2/files-2.1/b4d70312b78f53c88af6af54a360b32c/jetified-firebase-common-19.3.0/AndroidManifest.xml:26:9-30:39
	android:authorities
		ADDED from [com.google.firebase:firebase-common:19.3.0] /Users/connectingsoft/.gradle/caches/transforms-2/files-2.1/b4d70312b78f53c88af6af54a360b32c/jetified-firebase-common-19.3.0/AndroidManifest.xml:28:13-72
	android:exported
		ADDED from [com.google.firebase:firebase-common:19.3.0] /Users/connectingsoft/.gradle/caches/transforms-2/files-2.1/b4d70312b78f53c88af6af54a360b32c/jetified-firebase-common-19.3.0/AndroidManifest.xml:29:13-37
	android:initOrder
		ADDED from [com.google.firebase:firebase-common:19.3.0] /Users/connectingsoft/.gradle/caches/transforms-2/files-2.1/b4d70312b78f53c88af6af54a360b32c/jetified-firebase-common-19.3.0/AndroidManifest.xml:30:13-36
	android:name
		ADDED from [com.google.firebase:firebase-common:19.3.0] /Users/connectingsoft/.gradle/caches/transforms-2/files-2.1/b4d70312b78f53c88af6af54a360b32c/jetified-firebase-common-19.3.0/AndroidManifest.xml:27:13-77
meta-data#com.google.android.gms.version
ADDED from [com.google.android.gms:play-services-basement:17.0.0] /Users/connectingsoft/.gradle/caches/transforms-2/files-2.1/0c8ad2a00ddfc6ae591800ac4e022858/jetified-play-services-basement-17.0.0/AndroidManifest.xml:23:9-25:69
	android:value
		ADDED from [com.google.android.gms:play-services-basement:17.0.0] /Users/connectingsoft/.gradle/caches/transforms-2/files-2.1/0c8ad2a00ddfc6ae591800ac4e022858/jetified-play-services-basement-17.0.0/AndroidManifest.xml:25:13-66
	android:name
		ADDED from [com.google.android.gms:play-services-basement:17.0.0] /Users/connectingsoft/.gradle/caches/transforms-2/files-2.1/0c8ad2a00ddfc6ae591800ac4e022858/jetified-play-services-basement-17.0.0/AndroidManifest.xml:24:13-58
